<?xml version="1.0" encoding="utf-8"?>
<!-- Generator: Adobe Illustrator 24.3.0, SVG Export Plug-In . SVG Version: 6.00 Build 0)  -->
<svg version="1.1" id="Layer_1" xmlns="http://www.w3.org/2000/svg" xmlns:xlink="http://www.w3.org/1999/xlink" x="0px" y="0px"
	 viewBox="0 0 740.2 357.91" style="enable-background:new 0 0 740.2 357.91;" xml:space="preserve">
<style type="text/css">
	.st0{fill:#F1F6FC;}
	.st1{fill:#3F6DA3;}
	.st2{fill:none;stroke:#A0C3DF;}
</style>
<rect class="st0" width="740.2" height="357.91"/>
<g>
	<path d="M66.69,53.71v-9.16h2.45c1.4,0,2.49,0.38,3.28,1.13c0.78,0.76,1.18,1.89,1.18,3.4c0,0.76-0.1,1.42-0.3,2
		c-0.2,0.58-0.49,1.06-0.87,1.45s-0.84,0.68-1.37,0.88s-1.15,0.29-1.83,0.29H66.69z M68.32,52.39h0.71c0.93,0,1.65-0.27,2.15-0.8
		c0.5-0.54,0.75-1.37,0.75-2.5c0-1.12-0.25-1.94-0.76-2.45c-0.5-0.51-1.22-0.77-2.14-0.77h-0.71V52.39z"/>
	<path d="M76.12,45.63c-0.29,0-0.53-0.08-0.71-0.25c-0.19-0.17-0.28-0.39-0.28-0.66c0-0.27,0.09-0.49,0.28-0.67
		c0.19-0.17,0.42-0.26,0.71-0.26c0.29,0,0.53,0.09,0.71,0.26c0.19,0.17,0.28,0.39,0.28,0.67c0,0.27-0.09,0.49-0.28,0.66
		S76.41,45.63,76.12,45.63z M75.3,53.71v-6.87h1.61v6.87H75.3z"/>
	<path d="M81.38,53.88c-0.87,0-1.56-0.32-2.06-0.95c-0.51-0.63-0.76-1.51-0.76-2.65c0-0.56,0.08-1.06,0.25-1.51
		c0.16-0.45,0.38-0.83,0.65-1.13c0.27-0.31,0.58-0.55,0.93-0.71c0.35-0.17,0.71-0.25,1.08-0.25c0.39,0,0.72,0.07,0.99,0.2
		c0.27,0.14,0.54,0.32,0.81,0.55l-0.06-1.11v-2.49h1.61v9.88h-1.33l-0.11-0.74h-0.06c-0.25,0.25-0.55,0.47-0.88,0.64
		C82.11,53.79,81.75,53.88,81.38,53.88z M81.77,52.55c0.51,0,0.99-0.26,1.44-0.77v-3.21c-0.24-0.21-0.48-0.36-0.71-0.45
		C82.28,48.04,82.05,48,81.81,48c-0.45,0-0.83,0.2-1.13,0.59s-0.46,0.95-0.46,1.68c0,0.75,0.13,1.31,0.4,1.7
		C80.88,52.35,81.27,52.55,81.77,52.55z"/>
	<path d="M92.09,53.88c-0.4,0-0.74-0.06-1.01-0.18c-0.28-0.12-0.5-0.29-0.67-0.51c-0.17-0.22-0.3-0.48-0.38-0.78
		c-0.08-0.3-0.12-0.64-0.12-1.02v-3.28h-0.98v-1.2l1.06-0.07l0.2-1.88h1.34v1.88h1.75v1.27h-1.75v3.28c0,0.8,0.32,1.2,0.97,1.2
		c0.12,0,0.25-0.01,0.37-0.04s0.24-0.07,0.34-0.11l0.28,1.19c-0.19,0.07-0.4,0.12-0.64,0.17C92.61,53.85,92.36,53.88,92.09,53.88z"
		/>
	<path d="M94.72,53.71v-9.88h1.61v2.55l-0.06,1.33c0.29-0.27,0.61-0.51,0.96-0.72c0.35-0.21,0.76-0.32,1.24-0.32
		c0.74,0,1.27,0.24,1.61,0.71c0.34,0.47,0.5,1.15,0.5,2.02v4.31h-1.61v-4.1c0-0.57-0.08-0.97-0.25-1.2s-0.44-0.35-0.83-0.35
		c-0.3,0-0.56,0.07-0.79,0.22c-0.23,0.15-0.49,0.36-0.78,0.64v4.8H94.72z"/>
	<path d="M105.47,53.88c-0.48,0-0.92-0.08-1.33-0.25s-0.77-0.4-1.08-0.71c-0.31-0.31-0.55-0.68-0.72-1.13
		c-0.17-0.44-0.26-0.95-0.26-1.52c0-0.56,0.09-1.06,0.27-1.51c0.18-0.45,0.41-0.83,0.71-1.13c0.29-0.31,0.63-0.55,1.02-0.71
		s0.77-0.25,1.18-0.25c0.47,0,0.88,0.08,1.23,0.24c0.35,0.16,0.65,0.38,0.89,0.67c0.24,0.29,0.42,0.63,0.54,1.04
		c0.12,0.4,0.18,0.84,0.18,1.32c0,0.16-0.01,0.31-0.02,0.45s-0.03,0.25-0.05,0.34h-4.37c0.07,0.62,0.29,1.09,0.65,1.42
		c0.36,0.33,0.82,0.5,1.38,0.5c0.3,0,0.58-0.04,0.83-0.13s0.51-0.21,0.76-0.37l0.55,1.01c-0.33,0.21-0.69,0.39-1.09,0.53
		C106.33,53.81,105.91,53.88,105.47,53.88z M103.64,49.62h3.05c0-0.53-0.11-0.95-0.34-1.25s-0.58-0.46-1.06-0.46
		c-0.41,0-0.77,0.14-1.08,0.43C103.91,48.64,103.71,49.06,103.64,49.62z"/>
	<path d="M112.71,53.71v-5.6h-0.92v-1.2l0.92-0.07v-0.71c0-0.35,0.04-0.68,0.13-0.99c0.08-0.3,0.22-0.56,0.41-0.78
		c0.19-0.22,0.42-0.39,0.71-0.51s0.63-0.18,1.04-0.18c0.24,0,0.47,0.02,0.69,0.07c0.22,0.05,0.41,0.1,0.57,0.17l-0.31,1.2
		c-0.25-0.11-0.5-0.17-0.76-0.17c-0.58,0-0.87,0.39-0.87,1.16v0.74h1.34v1.27h-1.34v5.6H112.71z"/>
	<path d="M119.56,53.88c-0.43,0-0.84-0.08-1.23-0.24c-0.39-0.16-0.74-0.39-1.04-0.7c-0.3-0.31-0.54-0.69-0.72-1.13
		c-0.18-0.45-0.27-0.96-0.27-1.53s0.09-1.08,0.27-1.53s0.42-0.83,0.72-1.13c0.3-0.31,0.65-0.54,1.04-0.71s0.8-0.25,1.23-0.25
		s0.84,0.08,1.24,0.25c0.4,0.16,0.74,0.4,1.04,0.71c0.3,0.31,0.54,0.69,0.72,1.13c0.18,0.45,0.27,0.96,0.27,1.53
		s-0.09,1.08-0.27,1.53c-0.18,0.45-0.42,0.83-0.72,1.13c-0.3,0.31-0.65,0.54-1.04,0.7C120.4,53.8,119.99,53.88,119.56,53.88z
		 M119.56,52.56c0.5,0,0.9-0.21,1.19-0.62c0.29-0.42,0.43-0.97,0.43-1.66c0-0.7-0.14-1.26-0.43-1.67c-0.29-0.42-0.69-0.62-1.19-0.62
		s-0.9,0.21-1.18,0.62c-0.28,0.42-0.43,0.97-0.43,1.67c0,0.69,0.14,1.24,0.43,1.66C118.66,52.35,119.05,52.56,119.56,52.56z"/>
	<path d="M126,53.88c-0.58,0-0.98-0.17-1.22-0.52c-0.23-0.35-0.35-0.82-0.35-1.41v-8.12h1.61v8.2c0,0.2,0.04,0.33,0.11,0.41
		c0.07,0.08,0.15,0.12,0.24,0.12c0.04,0,0.07,0,0.1,0s0.08-0.01,0.15-0.03l0.21,1.2C126.64,53.83,126.35,53.88,126,53.88z"/>
	<path d="M129.79,53.88c-0.58,0-0.98-0.17-1.22-0.52c-0.23-0.35-0.35-0.82-0.35-1.41v-8.12h1.61v8.2c0,0.2,0.04,0.33,0.11,0.41
		c0.07,0.08,0.15,0.12,0.24,0.12c0.04,0,0.07,0,0.1,0s0.08-0.01,0.15-0.03l0.21,1.2C130.43,53.83,130.15,53.88,129.79,53.88z"/>
	<path d="M134.83,53.88c-0.43,0-0.84-0.08-1.23-0.24c-0.39-0.16-0.74-0.39-1.04-0.7c-0.3-0.31-0.54-0.69-0.72-1.13
		c-0.18-0.45-0.27-0.96-0.27-1.53s0.09-1.08,0.27-1.53s0.42-0.83,0.72-1.13c0.3-0.31,0.65-0.54,1.04-0.71s0.8-0.25,1.23-0.25
		s0.84,0.08,1.24,0.25c0.4,0.16,0.74,0.4,1.04,0.71c0.3,0.31,0.54,0.69,0.72,1.13c0.18,0.45,0.27,0.96,0.27,1.53
		s-0.09,1.08-0.27,1.53c-0.18,0.45-0.42,0.83-0.72,1.13c-0.3,0.31-0.65,0.54-1.04,0.7C135.67,53.8,135.26,53.88,134.83,53.88z
		 M134.83,52.56c0.5,0,0.9-0.21,1.19-0.62c0.29-0.42,0.43-0.97,0.43-1.66c0-0.7-0.14-1.26-0.43-1.67c-0.29-0.42-0.69-0.62-1.19-0.62
		s-0.9,0.21-1.18,0.62c-0.28,0.42-0.43,0.97-0.43,1.67c0,0.69,0.14,1.24,0.43,1.66C133.93,52.35,134.33,52.56,134.83,52.56z"/>
	<path d="M140.75,53.71l-1.82-6.87h1.62l0.83,3.57c0.07,0.33,0.14,0.65,0.19,0.98c0.05,0.33,0.11,0.66,0.17,0.99h0.06
		c0.06-0.34,0.13-0.67,0.2-0.99c0.07-0.33,0.15-0.65,0.23-0.98l0.9-3.57h1.47l0.91,3.57c0.08,0.33,0.16,0.65,0.24,0.98
		c0.07,0.33,0.15,0.66,0.22,0.99h0.06c0.06-0.34,0.13-0.67,0.18-0.99c0.06-0.33,0.12-0.65,0.18-0.98l0.83-3.57h1.51l-1.75,6.87
		h-1.92l-0.8-3.21c-0.07-0.33-0.14-0.65-0.21-0.97c-0.07-0.32-0.14-0.67-0.21-1.03h-0.06c-0.07,0.36-0.13,0.71-0.2,1.04
		c-0.07,0.33-0.14,0.65-0.21,0.98l-0.78,3.19H140.75z"/>
	<path d="M150.9,45.63c-0.29,0-0.53-0.08-0.71-0.25c-0.19-0.17-0.28-0.39-0.28-0.66c0-0.27,0.09-0.49,0.28-0.67
		c0.19-0.17,0.42-0.26,0.71-0.26c0.29,0,0.53,0.09,0.71,0.26c0.19,0.17,0.28,0.39,0.28,0.67c0,0.27-0.09,0.49-0.28,0.66
		S151.19,45.63,150.9,45.63z M150.09,53.71v-6.87h1.61v6.87H150.09z"/>
	<path d="M153.76,53.71v-6.87h1.33l0.11,0.92h0.06c0.31-0.3,0.64-0.55,1-0.77s0.78-0.32,1.25-0.32c0.74,0,1.27,0.24,1.61,0.71
		c0.34,0.47,0.5,1.15,0.5,2.02v4.31h-1.61v-4.1c0-0.57-0.08-0.97-0.25-1.2s-0.44-0.35-0.83-0.35c-0.3,0-0.56,0.07-0.79,0.22
		c-0.23,0.15-0.49,0.36-0.78,0.64v4.8H153.76z"/>
	<path d="M163.99,56.75c-0.41,0-0.79-0.04-1.14-0.11c-0.35-0.07-0.65-0.19-0.9-0.34s-0.45-0.34-0.6-0.56
		c-0.14-0.22-0.22-0.49-0.22-0.78c0-0.29,0.08-0.56,0.25-0.8c0.17-0.25,0.41-0.47,0.73-0.67v-0.06c-0.18-0.11-0.32-0.26-0.44-0.45
		c-0.12-0.19-0.18-0.42-0.18-0.7c0-0.27,0.08-0.52,0.23-0.74c0.15-0.22,0.33-0.4,0.53-0.54v-0.06c-0.23-0.18-0.44-0.42-0.62-0.74
		c-0.18-0.31-0.27-0.67-0.27-1.08c0-0.39,0.07-0.74,0.22-1.05s0.35-0.57,0.6-0.78c0.25-0.21,0.53-0.37,0.86-0.48
		s0.67-0.16,1.04-0.16c0.19,0,0.37,0.02,0.54,0.05c0.17,0.03,0.33,0.07,0.47,0.12h2.46v1.19h-1.26c0.11,0.13,0.21,0.3,0.28,0.5
		c0.07,0.2,0.11,0.42,0.11,0.66c0,0.38-0.07,0.72-0.2,1.01s-0.32,0.53-0.55,0.73c-0.23,0.2-0.51,0.35-0.83,0.45
		s-0.66,0.15-1.02,0.15c-0.15,0-0.3-0.01-0.46-0.04c-0.16-0.03-0.32-0.08-0.48-0.14c-0.1,0.09-0.18,0.19-0.25,0.28
		c-0.06,0.09-0.09,0.22-0.09,0.38c0,0.2,0.08,0.35,0.25,0.46c0.16,0.11,0.45,0.17,0.88,0.17h1.22c0.83,0,1.46,0.13,1.88,0.4
		c0.42,0.27,0.64,0.7,0.64,1.29c0,0.34-0.09,0.65-0.26,0.95c-0.17,0.3-0.42,0.55-0.74,0.77s-0.7,0.38-1.15,0.51
		S164.55,56.75,163.99,56.75z M164.24,55.7c0.56,0,1.01-0.11,1.35-0.33c0.34-0.22,0.51-0.48,0.51-0.78c0-0.27-0.1-0.45-0.31-0.55
		c-0.21-0.09-0.51-0.14-0.9-0.14h-0.94c-0.37,0-0.69-0.03-0.94-0.1c-0.35,0.27-0.53,0.57-0.53,0.91c0,0.31,0.16,0.55,0.47,0.72
		C163.26,55.61,163.69,55.7,164.24,55.7z M164.08,50.52c0.33,0,0.61-0.12,0.84-0.36s0.35-0.58,0.35-1.03c0-0.43-0.11-0.76-0.34-1
		c-0.23-0.24-0.51-0.36-0.85-0.36s-0.62,0.12-0.85,0.35s-0.35,0.57-0.35,1.01c0,0.45,0.12,0.79,0.35,1.03S163.74,50.52,164.08,50.52
		z"/>
	<path d="M174.55,53.88c-0.47,0-0.9-0.08-1.31-0.24c-0.41-0.16-0.76-0.39-1.06-0.7c-0.3-0.31-0.53-0.69-0.7-1.13
		c-0.17-0.45-0.25-0.96-0.25-1.53s0.09-1.08,0.28-1.53c0.19-0.45,0.44-0.83,0.76-1.13c0.32-0.31,0.68-0.54,1.1-0.71
		c0.42-0.16,0.85-0.25,1.31-0.25c0.45,0,0.83,0.08,1.15,0.22c0.32,0.15,0.61,0.33,0.86,0.55l-0.78,1.05
		c-0.19-0.16-0.37-0.28-0.55-0.37c-0.18-0.09-0.38-0.13-0.59-0.13c-0.56,0-1.01,0.21-1.36,0.62c-0.35,0.42-0.52,0.97-0.52,1.67
		c0,0.69,0.17,1.24,0.51,1.66c0.34,0.42,0.78,0.62,1.32,0.62c0.27,0,0.52-0.06,0.76-0.17c0.24-0.12,0.45-0.25,0.65-0.41l0.66,1.06
		c-0.33,0.28-0.68,0.49-1.07,0.63S174.94,53.88,174.55,53.88z"/>
	<path d="M180.64,53.88c-0.43,0-0.84-0.08-1.23-0.24c-0.39-0.16-0.74-0.39-1.04-0.7c-0.3-0.31-0.54-0.69-0.72-1.13
		c-0.18-0.45-0.27-0.96-0.27-1.53s0.09-1.08,0.27-1.53s0.42-0.83,0.72-1.13c0.3-0.31,0.65-0.54,1.04-0.71s0.8-0.25,1.23-0.25
		s0.84,0.08,1.24,0.25c0.4,0.16,0.74,0.4,1.04,0.71c0.3,0.31,0.54,0.69,0.72,1.13c0.18,0.45,0.27,0.96,0.27,1.53
		s-0.09,1.08-0.27,1.53c-0.18,0.45-0.42,0.83-0.72,1.13c-0.3,0.31-0.65,0.54-1.04,0.7C181.48,53.8,181.07,53.88,180.64,53.88z
		 M180.64,52.56c0.5,0,0.9-0.21,1.19-0.62c0.29-0.42,0.43-0.97,0.43-1.66c0-0.7-0.14-1.26-0.43-1.67c-0.29-0.42-0.69-0.62-1.19-0.62
		s-0.9,0.21-1.18,0.62c-0.28,0.42-0.43,0.97-0.43,1.67c0,0.69,0.14,1.24,0.43,1.66C179.74,52.35,180.13,52.56,180.64,52.56z"/>
	<path d="M185.51,53.71v-6.87h1.33l0.11,0.94h0.06c0.29-0.31,0.6-0.57,0.94-0.78s0.73-0.32,1.16-0.32c0.5,0,0.91,0.11,1.21,0.32
		s0.53,0.52,0.69,0.91c0.33-0.36,0.67-0.65,1.02-0.88c0.35-0.23,0.75-0.35,1.19-0.35c0.73,0,1.26,0.24,1.61,0.71
		c0.35,0.47,0.52,1.15,0.52,2.02v4.31h-1.62v-4.1c0-0.57-0.09-0.97-0.26-1.2s-0.44-0.35-0.79-0.35c-0.43,0-0.91,0.29-1.44,0.85v4.8
		h-1.61v-4.1c0-0.57-0.09-0.97-0.26-1.2s-0.44-0.35-0.8-0.35c-0.43,0-0.91,0.29-1.44,0.85v4.8H185.51z"/>
	<path d="M197.31,56.43v-9.59h1.33l0.11,0.73h0.06c0.29-0.24,0.61-0.45,0.97-0.63c0.35-0.18,0.72-0.27,1.11-0.27
		c0.43,0,0.81,0.08,1.14,0.25c0.33,0.16,0.61,0.4,0.85,0.71c0.23,0.31,0.41,0.68,0.53,1.11c0.12,0.43,0.18,0.91,0.18,1.44
		c0,0.59-0.08,1.11-0.25,1.58c-0.16,0.46-0.38,0.85-0.65,1.16c-0.27,0.31-0.58,0.55-0.94,0.72c-0.35,0.17-0.72,0.25-1.11,0.25
		c-0.3,0-0.6-0.07-0.9-0.2c-0.3-0.13-0.59-0.32-0.87-0.56l0.04,1.15v2.16H197.31z M200.31,52.55c0.46,0,0.84-0.2,1.15-0.59
		s0.46-0.99,0.46-1.77c0-0.69-0.12-1.23-0.35-1.61S200.96,48,200.43,48c-0.49,0-0.99,0.26-1.51,0.77v3.21
		c0.25,0.21,0.49,0.36,0.73,0.45S200.1,52.55,200.31,52.55z"/>
	<path d="M206.72,53.88c-0.61,0-1.1-0.18-1.47-0.55c-0.37-0.37-0.56-0.86-0.56-1.46c0-0.36,0.08-0.69,0.23-0.97
		c0.15-0.28,0.4-0.53,0.73-0.73c0.33-0.21,0.75-0.38,1.26-0.52c0.51-0.14,1.12-0.25,1.83-0.32c-0.01-0.18-0.04-0.35-0.08-0.51
		c-0.04-0.16-0.11-0.31-0.21-0.43s-0.23-0.22-0.38-0.29c-0.16-0.07-0.35-0.11-0.59-0.11c-0.34,0-0.67,0.07-0.99,0.2
		c-0.32,0.13-0.64,0.29-0.94,0.48l-0.59-1.08c0.38-0.24,0.81-0.45,1.29-0.63c0.48-0.18,0.99-0.27,1.54-0.27
		c0.86,0,1.5,0.25,1.92,0.76c0.42,0.51,0.64,1.24,0.64,2.21v4.07h-1.33l-0.11-0.76h-0.06c-0.31,0.26-0.64,0.48-0.99,0.66
		C207.51,53.79,207.13,53.88,206.72,53.88z M207.24,52.62c0.28,0,0.53-0.07,0.76-0.2c0.23-0.13,0.47-0.32,0.73-0.56v-1.54
		c-0.47,0.06-0.86,0.13-1.18,0.22c-0.32,0.09-0.57,0.2-0.77,0.32c-0.2,0.12-0.34,0.25-0.42,0.4s-0.13,0.31-0.13,0.48
		c0,0.31,0.09,0.53,0.28,0.67C206.71,52.55,206.95,52.62,207.24,52.62z"/>
	<path d="M212.28,53.71v-6.87h1.33l0.11,0.92h0.06c0.31-0.3,0.64-0.55,1-0.77s0.78-0.32,1.25-0.32c0.74,0,1.27,0.24,1.61,0.71
		c0.34,0.47,0.5,1.15,0.5,2.02v4.31h-1.61v-4.1c0-0.57-0.08-0.97-0.25-1.2s-0.44-0.35-0.83-0.35c-0.3,0-0.56,0.07-0.79,0.22
		c-0.23,0.15-0.49,0.36-0.78,0.64v4.8H212.28z"/>
	<path d="M220.93,45.63c-0.29,0-0.53-0.08-0.71-0.25c-0.19-0.17-0.28-0.39-0.28-0.66c0-0.27,0.09-0.49,0.28-0.67
		c0.19-0.17,0.42-0.26,0.71-0.26c0.29,0,0.53,0.09,0.71,0.26c0.19,0.17,0.28,0.39,0.28,0.67c0,0.27-0.09,0.49-0.28,0.66
		S221.22,45.63,220.93,45.63z M220.12,53.71v-6.87h1.61v6.87H220.12z"/>
	<path d="M226.73,53.88c-0.48,0-0.92-0.08-1.33-0.25s-0.77-0.4-1.08-0.71c-0.31-0.31-0.55-0.68-0.72-1.13
		c-0.17-0.44-0.26-0.95-0.26-1.52c0-0.56,0.09-1.06,0.27-1.51c0.18-0.45,0.41-0.83,0.71-1.13c0.29-0.31,0.63-0.55,1.02-0.71
		s0.77-0.25,1.18-0.25c0.47,0,0.88,0.08,1.23,0.24c0.35,0.16,0.65,0.38,0.89,0.67c0.24,0.29,0.42,0.63,0.54,1.04
		c0.12,0.4,0.18,0.84,0.18,1.32c0,0.16-0.01,0.31-0.02,0.45s-0.03,0.25-0.05,0.34h-4.37c0.07,0.62,0.29,1.09,0.65,1.42
		c0.36,0.33,0.82,0.5,1.38,0.5c0.3,0,0.58-0.04,0.83-0.13s0.51-0.21,0.76-0.37l0.55,1.01c-0.33,0.21-0.69,0.39-1.09,0.53
		C227.58,53.81,227.16,53.88,226.73,53.88z M224.89,49.62h3.05c0-0.53-0.11-0.95-0.34-1.25s-0.58-0.46-1.06-0.46
		c-0.41,0-0.77,0.14-1.08,0.43C225.16,48.64,224.97,49.06,224.89,49.62z"/>
	<path d="M232.8,53.88c-0.48,0-0.94-0.09-1.41-0.27c-0.46-0.18-0.86-0.41-1.2-0.68l0.76-1.04c0.31,0.24,0.61,0.43,0.92,0.57
		s0.63,0.2,0.99,0.2c0.37,0,0.65-0.08,0.83-0.23c0.18-0.15,0.27-0.35,0.27-0.59c0-0.14-0.04-0.26-0.13-0.37s-0.2-0.2-0.34-0.29
		s-0.3-0.16-0.48-0.23c-0.18-0.07-0.35-0.14-0.53-0.22c-0.22-0.08-0.45-0.18-0.69-0.29c-0.23-0.11-0.44-0.25-0.62-0.41
		c-0.18-0.16-0.33-0.34-0.45-0.55s-0.17-0.46-0.17-0.75c0-0.61,0.22-1.1,0.67-1.48c0.45-0.38,1.06-0.57,1.83-0.57
		c0.48,0,0.91,0.08,1.29,0.25s0.71,0.36,0.99,0.57l-0.74,0.98c-0.24-0.18-0.49-0.32-0.73-0.43c-0.25-0.11-0.51-0.16-0.78-0.16
		c-0.35,0-0.6,0.07-0.76,0.22c-0.16,0.15-0.25,0.33-0.25,0.54c0,0.14,0.04,0.26,0.12,0.36c0.08,0.1,0.18,0.18,0.31,0.26
		c0.13,0.08,0.28,0.14,0.46,0.21c0.17,0.07,0.35,0.13,0.54,0.2c0.23,0.08,0.47,0.18,0.7,0.29s0.45,0.24,0.64,0.4
		c0.19,0.16,0.35,0.35,0.46,0.58c0.12,0.23,0.17,0.5,0.17,0.82c0,0.3-0.06,0.58-0.17,0.83s-0.29,0.48-0.51,0.67
		c-0.22,0.19-0.5,0.34-0.84,0.46S233.23,53.88,232.8,53.88z"/>
	<path d="M239.72,53.71v-9.88h1.61v2.55l-0.06,1.33c0.29-0.27,0.61-0.51,0.96-0.72c0.35-0.21,0.76-0.32,1.24-0.32
		c0.74,0,1.27,0.24,1.61,0.71c0.34,0.47,0.5,1.15,0.5,2.02v4.31h-1.61v-4.1c0-0.57-0.08-0.97-0.25-1.2s-0.44-0.35-0.83-0.35
		c-0.3,0-0.56,0.07-0.79,0.22c-0.23,0.15-0.49,0.36-0.78,0.64v4.8H239.72z"/>
	<path d="M250.47,53.88c-0.48,0-0.92-0.08-1.33-0.25s-0.77-0.4-1.08-0.71c-0.31-0.31-0.55-0.68-0.72-1.13
		c-0.17-0.44-0.26-0.95-0.26-1.52c0-0.56,0.09-1.06,0.27-1.51c0.18-0.45,0.41-0.83,0.71-1.13c0.29-0.31,0.63-0.55,1.02-0.71
		s0.77-0.25,1.18-0.25c0.47,0,0.88,0.08,1.23,0.24c0.35,0.16,0.65,0.38,0.89,0.67c0.24,0.29,0.42,0.63,0.54,1.04
		c0.12,0.4,0.18,0.84,0.18,1.32c0,0.16-0.01,0.31-0.02,0.45s-0.03,0.25-0.05,0.34h-4.37c0.07,0.62,0.29,1.09,0.65,1.42
		c0.36,0.33,0.82,0.5,1.38,0.5c0.3,0,0.58-0.04,0.83-0.13s0.51-0.21,0.76-0.37l0.55,1.01c-0.33,0.21-0.69,0.39-1.09,0.53
		C251.33,53.81,250.91,53.88,250.47,53.88z M248.64,49.62h3.05c0-0.53-0.11-0.95-0.34-1.25s-0.58-0.46-1.06-0.46
		c-0.41,0-0.77,0.14-1.08,0.43C248.9,48.64,248.71,49.06,248.64,49.62z"/>
	<path d="M256.2,53.88c-0.58,0-0.98-0.17-1.22-0.52c-0.23-0.35-0.35-0.82-0.35-1.41v-8.12h1.61v8.2c0,0.2,0.04,0.33,0.11,0.41
		c0.07,0.08,0.15,0.12,0.24,0.12c0.04,0,0.07,0,0.1,0s0.08-0.01,0.15-0.03l0.21,1.2C256.83,53.83,256.55,53.88,256.2,53.88z"/>
	<path d="M258.42,56.43v-9.59h1.33l0.11,0.73h0.06c0.29-0.24,0.61-0.45,0.97-0.63c0.35-0.18,0.72-0.27,1.11-0.27
		c0.43,0,0.81,0.08,1.14,0.25c0.33,0.16,0.61,0.4,0.85,0.71c0.23,0.31,0.41,0.68,0.53,1.11c0.12,0.43,0.18,0.91,0.18,1.44
		c0,0.59-0.08,1.11-0.25,1.58c-0.16,0.46-0.38,0.85-0.65,1.16c-0.27,0.31-0.58,0.55-0.94,0.72c-0.35,0.17-0.72,0.25-1.11,0.25
		c-0.3,0-0.6-0.07-0.9-0.2c-0.3-0.13-0.59-0.32-0.87-0.56l0.04,1.15v2.16H258.42z M261.42,52.55c0.46,0,0.84-0.2,1.15-0.59
		s0.46-0.99,0.46-1.77c0-0.69-0.12-1.23-0.35-1.61S262.07,48,261.54,48c-0.49,0-0.99,0.26-1.51,0.77v3.21
		c0.25,0.21,0.49,0.36,0.73,0.45S261.21,52.55,261.42,52.55z"/>
	<path d="M271.04,53.88c-0.48,0-0.94-0.09-1.41-0.27c-0.46-0.18-0.86-0.41-1.2-0.68l0.76-1.04c0.31,0.24,0.61,0.43,0.92,0.57
		s0.63,0.2,0.99,0.2c0.37,0,0.65-0.08,0.83-0.23c0.18-0.15,0.27-0.35,0.27-0.59c0-0.14-0.04-0.26-0.13-0.37s-0.2-0.2-0.34-0.29
		s-0.3-0.16-0.48-0.23c-0.18-0.07-0.35-0.14-0.53-0.22c-0.22-0.08-0.45-0.18-0.69-0.29c-0.23-0.11-0.44-0.25-0.62-0.41
		c-0.18-0.16-0.33-0.34-0.45-0.55s-0.17-0.46-0.17-0.75c0-0.61,0.22-1.1,0.67-1.48c0.45-0.38,1.06-0.57,1.83-0.57
		c0.48,0,0.91,0.08,1.29,0.25s0.71,0.36,0.99,0.57l-0.74,0.98c-0.24-0.18-0.49-0.32-0.73-0.43c-0.25-0.11-0.51-0.16-0.78-0.16
		c-0.35,0-0.6,0.07-0.76,0.22c-0.16,0.15-0.25,0.33-0.25,0.54c0,0.14,0.04,0.26,0.12,0.36c0.08,0.1,0.18,0.18,0.31,0.26
		c0.13,0.08,0.28,0.14,0.46,0.21c0.17,0.07,0.35,0.13,0.54,0.2c0.23,0.08,0.47,0.18,0.7,0.29s0.45,0.24,0.64,0.4
		c0.19,0.16,0.35,0.35,0.46,0.58c0.12,0.23,0.17,0.5,0.17,0.82c0,0.3-0.06,0.58-0.17,0.83s-0.29,0.48-0.51,0.67
		c-0.22,0.19-0.5,0.34-0.84,0.46S271.46,53.88,271.04,53.88z"/>
	<path d="M275.15,53.71v-6.87h1.33l0.11,0.94h0.06c0.29-0.31,0.6-0.57,0.94-0.78s0.73-0.32,1.16-0.32c0.5,0,0.91,0.11,1.21,0.32
		s0.53,0.52,0.69,0.91c0.33-0.36,0.67-0.65,1.02-0.88c0.35-0.23,0.75-0.35,1.19-0.35c0.73,0,1.26,0.24,1.61,0.71
		c0.35,0.47,0.52,1.15,0.52,2.02v4.31h-1.62v-4.1c0-0.57-0.09-0.97-0.26-1.2s-0.44-0.35-0.79-0.35c-0.43,0-0.91,0.29-1.44,0.85v4.8
		h-1.61v-4.1c0-0.57-0.09-0.97-0.26-1.2s-0.44-0.35-0.8-0.35c-0.43,0-0.91,0.29-1.44,0.85v4.8H275.15z"/>
	<path d="M288.62,53.88c-0.61,0-1.1-0.18-1.47-0.55c-0.37-0.37-0.56-0.86-0.56-1.46c0-0.36,0.08-0.69,0.23-0.97
		c0.15-0.28,0.4-0.53,0.73-0.73s0.75-0.38,1.26-0.52c0.51-0.14,1.12-0.25,1.83-0.32c-0.01-0.18-0.04-0.35-0.08-0.51
		c-0.04-0.16-0.11-0.31-0.21-0.43s-0.23-0.22-0.38-0.29c-0.16-0.07-0.36-0.11-0.59-0.11c-0.34,0-0.67,0.07-0.99,0.2
		s-0.64,0.29-0.95,0.48l-0.59-1.08c0.38-0.24,0.81-0.45,1.29-0.63c0.48-0.18,0.99-0.27,1.54-0.27c0.86,0,1.5,0.25,1.93,0.76
		c0.42,0.51,0.64,1.24,0.64,2.21v4.07h-1.33l-0.11-0.76h-0.06c-0.31,0.26-0.64,0.48-0.99,0.66
		C289.41,53.79,289.03,53.88,288.62,53.88z M289.14,52.62c0.28,0,0.53-0.07,0.76-0.2s0.47-0.32,0.74-0.56v-1.54
		c-0.47,0.06-0.86,0.13-1.18,0.22c-0.32,0.09-0.57,0.2-0.77,0.32c-0.2,0.12-0.34,0.25-0.42,0.4s-0.12,0.31-0.12,0.48
		c0,0.31,0.09,0.53,0.28,0.67C288.61,52.55,288.85,52.62,289.14,52.62z"/>
	<path d="M295.74,53.88c-0.58,0-0.98-0.17-1.22-0.52c-0.23-0.35-0.35-0.82-0.35-1.41v-8.12h1.61v8.2c0,0.2,0.04,0.33,0.11,0.41
		c0.07,0.08,0.15,0.12,0.24,0.12c0.04,0,0.07,0,0.1,0c0.03,0,0.08-0.01,0.15-0.03l0.21,1.2C296.38,53.83,296.1,53.88,295.74,53.88z"
		/>
	<path d="M299.54,53.88c-0.58,0-0.98-0.17-1.22-0.52c-0.23-0.35-0.35-0.82-0.35-1.41v-8.12h1.61v8.2c0,0.2,0.04,0.33,0.11,0.41
		c0.07,0.08,0.15,0.12,0.24,0.12c0.04,0,0.07,0,0.1,0c0.03,0,0.08-0.01,0.15-0.03l0.21,1.2C300.18,53.83,299.89,53.88,299.54,53.88z
		"/>
	<path d="M307.9,53.88c-0.32,0-0.64-0.08-0.96-0.23c-0.32-0.15-0.63-0.38-0.92-0.66h-0.04l-0.14,0.73h-1.27v-9.88h1.61v2.55
		l-0.04,1.15c0.29-0.25,0.6-0.46,0.95-0.62c0.34-0.16,0.69-0.24,1.04-0.24c0.43,0,0.81,0.08,1.15,0.25s0.62,0.4,0.85,0.7
		c0.23,0.3,0.41,0.67,0.53,1.1c0.12,0.43,0.18,0.91,0.18,1.44c0,0.59-0.08,1.11-0.25,1.57c-0.16,0.46-0.38,0.85-0.65,1.17
		c-0.27,0.32-0.58,0.56-0.94,0.73S308.28,53.88,307.9,53.88z M307.56,52.55c0.46,0,0.84-0.2,1.15-0.59s0.46-0.99,0.46-1.77
		c0-0.69-0.12-1.23-0.35-1.61c-0.23-0.38-0.61-0.57-1.13-0.57c-0.49,0-0.99,0.26-1.51,0.77v3.21c0.24,0.21,0.48,0.36,0.72,0.45
		C307.13,52.51,307.36,52.55,307.56,52.55z"/>
	<path d="M314.49,53.88c-0.74,0-1.27-0.24-1.61-0.71c-0.34-0.47-0.5-1.15-0.5-2.02v-4.31h1.61v4.1c0,0.57,0.08,0.97,0.25,1.2
		c0.17,0.23,0.44,0.35,0.81,0.35c0.3,0,0.56-0.08,0.79-0.22c0.23-0.15,0.47-0.39,0.74-0.73v-4.7h1.61v6.87h-1.32l-0.13-1.01h-0.04
		c-0.3,0.35-0.62,0.64-0.97,0.85C315.38,53.77,314.97,53.88,314.49,53.88z"/>
	<path d="M322.15,53.88c-0.48,0-0.95-0.09-1.41-0.27c-0.46-0.18-0.86-0.41-1.2-0.68l0.76-1.04c0.31,0.24,0.61,0.43,0.92,0.57
		c0.3,0.14,0.63,0.2,0.99,0.2c0.37,0,0.65-0.08,0.83-0.23c0.18-0.15,0.27-0.35,0.27-0.59c0-0.14-0.04-0.26-0.13-0.37
		s-0.2-0.2-0.34-0.29s-0.3-0.16-0.48-0.23c-0.18-0.07-0.36-0.14-0.53-0.22c-0.22-0.08-0.45-0.18-0.69-0.29
		c-0.23-0.11-0.44-0.25-0.62-0.41c-0.18-0.16-0.33-0.34-0.45-0.55c-0.12-0.21-0.18-0.46-0.18-0.75c0-0.61,0.22-1.1,0.67-1.48
		c0.45-0.38,1.06-0.57,1.83-0.57c0.48,0,0.91,0.08,1.29,0.25c0.38,0.17,0.71,0.36,0.99,0.57l-0.74,0.98
		c-0.24-0.18-0.49-0.32-0.74-0.43s-0.51-0.16-0.78-0.16c-0.34,0-0.6,0.07-0.76,0.22c-0.16,0.15-0.25,0.33-0.25,0.54
		c0,0.14,0.04,0.26,0.12,0.36s0.18,0.18,0.32,0.26c0.13,0.08,0.28,0.14,0.45,0.21s0.35,0.13,0.54,0.2c0.23,0.08,0.47,0.18,0.7,0.29
		s0.45,0.24,0.64,0.4c0.19,0.16,0.35,0.35,0.46,0.58c0.12,0.23,0.17,0.5,0.17,0.82c0,0.3-0.06,0.58-0.17,0.83
		c-0.12,0.26-0.29,0.48-0.51,0.67c-0.22,0.19-0.5,0.34-0.84,0.46S322.58,53.88,322.15,53.88z"/>
	<path d="M327.08,45.63c-0.29,0-0.53-0.08-0.71-0.25s-0.28-0.39-0.28-0.66c0-0.27,0.09-0.49,0.28-0.67
		c0.19-0.17,0.42-0.26,0.71-0.26s0.53,0.09,0.71,0.26c0.19,0.17,0.28,0.39,0.28,0.67c0,0.27-0.09,0.49-0.28,0.66
		S327.37,45.63,327.08,45.63z M326.27,53.71v-6.87h1.61v6.87H326.27z"/>
	<path d="M329.93,53.71v-6.87h1.33l0.11,0.92h0.06c0.31-0.3,0.64-0.55,1-0.77c0.36-0.21,0.78-0.32,1.25-0.32
		c0.74,0,1.27,0.24,1.61,0.71s0.5,1.15,0.5,2.02v4.31h-1.61v-4.1c0-0.57-0.08-0.97-0.25-1.2s-0.44-0.35-0.83-0.35
		c-0.3,0-0.56,0.07-0.79,0.22c-0.23,0.15-0.49,0.36-0.78,0.64v4.8H329.93z"/>
	<path d="M340.71,53.88c-0.48,0-0.92-0.08-1.33-0.25s-0.77-0.4-1.08-0.71c-0.31-0.31-0.55-0.68-0.72-1.13s-0.26-0.95-0.26-1.52
		c0-0.56,0.09-1.06,0.27-1.51c0.18-0.45,0.41-0.83,0.71-1.13c0.29-0.31,0.63-0.55,1.01-0.71s0.78-0.25,1.18-0.25
		c0.47,0,0.88,0.08,1.23,0.24c0.35,0.16,0.65,0.38,0.89,0.67c0.24,0.29,0.42,0.63,0.54,1.04c0.12,0.4,0.18,0.84,0.18,1.32
		c0,0.16-0.01,0.31-0.02,0.45c-0.01,0.14-0.03,0.25-0.05,0.34h-4.37c0.08,0.62,0.29,1.09,0.65,1.42c0.36,0.33,0.82,0.5,1.38,0.5
		c0.3,0,0.58-0.04,0.83-0.13s0.51-0.21,0.76-0.37l0.55,1.01c-0.33,0.21-0.69,0.39-1.09,0.53S341.15,53.88,340.71,53.88z
		 M338.88,49.62h3.05c0-0.53-0.11-0.95-0.34-1.25s-0.58-0.46-1.06-0.46c-0.41,0-0.77,0.14-1.08,0.43
		C339.14,48.64,338.95,49.06,338.88,49.62z"/>
	<path d="M346.79,53.88c-0.48,0-0.95-0.09-1.41-0.27c-0.46-0.18-0.86-0.41-1.2-0.68l0.76-1.04c0.31,0.24,0.61,0.43,0.92,0.57
		c0.3,0.14,0.63,0.2,0.99,0.2c0.37,0,0.65-0.08,0.83-0.23c0.18-0.15,0.27-0.35,0.27-0.59c0-0.14-0.04-0.26-0.13-0.37
		s-0.2-0.2-0.34-0.29s-0.3-0.16-0.48-0.23c-0.18-0.07-0.36-0.14-0.53-0.22c-0.22-0.08-0.45-0.18-0.69-0.29
		c-0.23-0.11-0.44-0.25-0.62-0.41c-0.18-0.16-0.33-0.34-0.45-0.55c-0.12-0.21-0.18-0.46-0.18-0.75c0-0.61,0.22-1.1,0.67-1.48
		c0.45-0.38,1.06-0.57,1.83-0.57c0.48,0,0.91,0.08,1.29,0.25c0.38,0.17,0.71,0.36,0.99,0.57l-0.74,0.98
		c-0.24-0.18-0.49-0.32-0.74-0.43s-0.51-0.16-0.78-0.16c-0.34,0-0.6,0.07-0.76,0.22c-0.16,0.15-0.25,0.33-0.25,0.54
		c0,0.14,0.04,0.26,0.12,0.36s0.18,0.18,0.32,0.26c0.13,0.08,0.28,0.14,0.45,0.21s0.35,0.13,0.54,0.2c0.23,0.08,0.47,0.18,0.7,0.29
		s0.45,0.24,0.64,0.4c0.19,0.16,0.35,0.35,0.46,0.58c0.12,0.23,0.17,0.5,0.17,0.82c0,0.3-0.06,0.58-0.17,0.83
		c-0.12,0.26-0.29,0.48-0.51,0.67c-0.22,0.19-0.5,0.34-0.84,0.46S347.22,53.88,346.79,53.88z"/>
	<path d="M352.82,53.88c-0.48,0-0.95-0.09-1.41-0.27c-0.46-0.18-0.86-0.41-1.2-0.68l0.76-1.04c0.31,0.24,0.61,0.43,0.92,0.57
		c0.3,0.14,0.63,0.2,0.99,0.2c0.37,0,0.65-0.08,0.83-0.23c0.18-0.15,0.27-0.35,0.27-0.59c0-0.14-0.04-0.26-0.13-0.37
		s-0.2-0.2-0.34-0.29s-0.3-0.16-0.48-0.23c-0.18-0.07-0.36-0.14-0.53-0.22c-0.22-0.08-0.45-0.18-0.69-0.29
		c-0.23-0.11-0.44-0.25-0.62-0.41c-0.18-0.16-0.33-0.34-0.45-0.55c-0.12-0.21-0.18-0.46-0.18-0.75c0-0.61,0.22-1.1,0.67-1.48
		c0.45-0.38,1.06-0.57,1.83-0.57c0.48,0,0.91,0.08,1.29,0.25c0.38,0.17,0.71,0.36,0.99,0.57l-0.74,0.98
		c-0.24-0.18-0.49-0.32-0.74-0.43s-0.51-0.16-0.78-0.16c-0.34,0-0.6,0.07-0.76,0.22c-0.16,0.15-0.25,0.33-0.25,0.54
		c0,0.14,0.04,0.26,0.12,0.36s0.18,0.18,0.32,0.26c0.13,0.08,0.28,0.14,0.45,0.21s0.35,0.13,0.54,0.2c0.23,0.08,0.47,0.18,0.7,0.29
		s0.45,0.24,0.64,0.4c0.19,0.16,0.35,0.35,0.46,0.58c0.12,0.23,0.17,0.5,0.17,0.82c0,0.3-0.06,0.58-0.17,0.83
		c-0.12,0.26-0.29,0.48-0.51,0.67c-0.22,0.19-0.5,0.34-0.84,0.46S353.25,53.88,352.82,53.88z"/>
	<path d="M359.88,53.88c-0.48,0-0.92-0.08-1.33-0.25s-0.77-0.4-1.08-0.71c-0.31-0.31-0.55-0.68-0.72-1.13s-0.26-0.95-0.26-1.52
		c0-0.56,0.09-1.06,0.27-1.51c0.18-0.45,0.41-0.83,0.71-1.13c0.29-0.31,0.63-0.55,1.01-0.71s0.78-0.25,1.18-0.25
		c0.47,0,0.88,0.08,1.23,0.24c0.35,0.16,0.65,0.38,0.89,0.67c0.24,0.29,0.42,0.63,0.54,1.04c0.12,0.4,0.18,0.84,0.18,1.32
		c0,0.16-0.01,0.31-0.02,0.45c-0.01,0.14-0.03,0.25-0.05,0.34h-4.37c0.08,0.62,0.29,1.09,0.65,1.42c0.36,0.33,0.82,0.5,1.38,0.5
		c0.3,0,0.58-0.04,0.83-0.13s0.51-0.21,0.76-0.37l0.55,1.01c-0.33,0.21-0.69,0.39-1.09,0.53S360.32,53.88,359.88,53.88z
		 M358.04,49.62h3.05c0-0.53-0.11-0.95-0.34-1.25s-0.58-0.46-1.06-0.46c-0.41,0-0.77,0.14-1.08,0.43
		C358.31,48.64,358.12,49.06,358.04,49.62z"/>
	<path d="M365.95,53.88c-0.48,0-0.95-0.09-1.41-0.27c-0.46-0.18-0.86-0.41-1.2-0.68l0.76-1.04c0.31,0.24,0.61,0.43,0.92,0.57
		c0.3,0.14,0.63,0.2,0.99,0.2c0.37,0,0.65-0.08,0.83-0.23c0.18-0.15,0.27-0.35,0.27-0.59c0-0.14-0.04-0.26-0.13-0.37
		s-0.2-0.2-0.34-0.29s-0.3-0.16-0.48-0.23c-0.18-0.07-0.36-0.14-0.53-0.22c-0.22-0.08-0.45-0.18-0.69-0.29
		c-0.23-0.11-0.44-0.25-0.62-0.41c-0.18-0.16-0.33-0.34-0.45-0.55c-0.12-0.21-0.18-0.46-0.18-0.75c0-0.61,0.22-1.1,0.67-1.48
		c0.45-0.38,1.06-0.57,1.83-0.57c0.48,0,0.91,0.08,1.29,0.25c0.38,0.17,0.71,0.36,0.99,0.57l-0.74,0.98
		c-0.24-0.18-0.49-0.32-0.74-0.43s-0.51-0.16-0.78-0.16c-0.34,0-0.6,0.07-0.76,0.22c-0.16,0.15-0.25,0.33-0.25,0.54
		c0,0.14,0.04,0.26,0.12,0.36s0.18,0.18,0.32,0.26c0.13,0.08,0.28,0.14,0.45,0.21s0.35,0.13,0.54,0.2c0.23,0.08,0.47,0.18,0.7,0.29
		s0.45,0.24,0.64,0.4c0.19,0.16,0.35,0.35,0.46,0.58c0.12,0.23,0.17,0.5,0.17,0.82c0,0.3-0.06,0.58-0.17,0.83
		c-0.12,0.26-0.29,0.48-0.51,0.67c-0.22,0.19-0.5,0.34-0.84,0.46S366.38,53.88,365.95,53.88z"/>
	<path d="M375.26,56.75c-0.41,0-0.79-0.04-1.14-0.11c-0.35-0.07-0.65-0.19-0.9-0.34s-0.45-0.34-0.59-0.56
		c-0.15-0.22-0.22-0.49-0.22-0.78c0-0.29,0.08-0.56,0.25-0.8c0.17-0.25,0.41-0.47,0.73-0.67v-0.06c-0.18-0.11-0.32-0.26-0.44-0.45
		c-0.12-0.19-0.17-0.42-0.17-0.7c0-0.27,0.08-0.52,0.23-0.74c0.15-0.22,0.33-0.4,0.52-0.54v-0.06c-0.23-0.18-0.44-0.42-0.62-0.74
		c-0.18-0.31-0.27-0.67-0.27-1.08c0-0.39,0.07-0.74,0.22-1.05s0.35-0.57,0.59-0.78c0.25-0.21,0.53-0.37,0.86-0.48
		s0.67-0.16,1.04-0.16c0.19,0,0.37,0.02,0.54,0.05c0.17,0.03,0.33,0.07,0.47,0.12h2.46v1.19h-1.26c0.11,0.13,0.21,0.3,0.28,0.5
		c0.07,0.2,0.11,0.42,0.11,0.66c0,0.38-0.07,0.72-0.2,1.01c-0.14,0.29-0.32,0.53-0.55,0.73s-0.51,0.35-0.83,0.45
		c-0.32,0.1-0.66,0.15-1.02,0.15c-0.15,0-0.3-0.01-0.46-0.04c-0.16-0.03-0.32-0.08-0.48-0.14c-0.1,0.09-0.18,0.19-0.24,0.28
		c-0.06,0.09-0.09,0.22-0.09,0.38c0,0.2,0.08,0.35,0.25,0.46s0.46,0.17,0.88,0.17h1.22c0.83,0,1.46,0.13,1.88,0.4
		c0.42,0.27,0.64,0.7,0.64,1.29c0,0.34-0.09,0.65-0.26,0.95c-0.17,0.3-0.42,0.55-0.74,0.77s-0.7,0.38-1.16,0.51
		C376.33,56.69,375.82,56.75,375.26,56.75z M375.52,55.7c0.56,0,1.01-0.11,1.35-0.33c0.34-0.22,0.51-0.48,0.51-0.78
		c0-0.27-0.11-0.45-0.32-0.55c-0.21-0.09-0.51-0.14-0.9-0.14h-0.94c-0.37,0-0.69-0.03-0.94-0.1c-0.35,0.27-0.53,0.57-0.53,0.91
		c0,0.31,0.16,0.55,0.47,0.72C374.53,55.61,374.97,55.7,375.52,55.7z M375.35,50.52c0.33,0,0.61-0.12,0.84-0.36s0.35-0.58,0.35-1.03
		c0-0.43-0.12-0.76-0.34-1s-0.51-0.36-0.85-0.36s-0.62,0.12-0.85,0.35c-0.23,0.23-0.35,0.57-0.35,1.01c0,0.45,0.12,0.79,0.35,1.03
		C374.73,50.4,375.01,50.52,375.35,50.52z"/>
	<path d="M380.15,53.71v-6.87h1.33l0.11,1.22h0.06c0.24-0.45,0.54-0.79,0.88-1.03c0.34-0.24,0.7-0.36,1.06-0.36
		c0.33,0,0.59,0.05,0.78,0.14l-0.28,1.4c-0.12-0.04-0.23-0.07-0.34-0.08s-0.23-0.03-0.38-0.03c-0.27,0-0.56,0.11-0.85,0.32
		c-0.3,0.21-0.56,0.58-0.77,1.1v4.2H380.15z"/>
	<path d="M388.05,53.88c-0.43,0-0.84-0.08-1.23-0.24c-0.39-0.16-0.74-0.39-1.04-0.7c-0.3-0.31-0.54-0.69-0.72-1.13
		c-0.18-0.45-0.27-0.96-0.27-1.53s0.09-1.08,0.27-1.53s0.42-0.83,0.72-1.13c0.3-0.31,0.65-0.54,1.04-0.71
		c0.39-0.16,0.8-0.25,1.23-0.25s0.84,0.08,1.24,0.25c0.4,0.16,0.74,0.4,1.04,0.71c0.3,0.31,0.54,0.69,0.72,1.13
		c0.18,0.45,0.27,0.96,0.27,1.53s-0.09,1.08-0.27,1.53c-0.18,0.45-0.42,0.83-0.72,1.13c-0.3,0.31-0.65,0.54-1.04,0.7
		C388.89,53.8,388.48,53.88,388.05,53.88z M388.05,52.56c0.5,0,0.9-0.21,1.19-0.62c0.29-0.42,0.43-0.97,0.43-1.66
		c0-0.7-0.14-1.26-0.43-1.67c-0.29-0.42-0.69-0.62-1.19-0.62s-0.9,0.21-1.18,0.62c-0.29,0.42-0.43,0.97-0.43,1.67
		c0,0.69,0.14,1.24,0.43,1.66C387.15,52.35,387.54,52.56,388.05,52.56z"/>
	<path d="M393.97,53.71l-1.82-6.87h1.62l0.83,3.57c0.07,0.33,0.14,0.65,0.19,0.98c0.05,0.33,0.11,0.66,0.18,0.99h0.06
		c0.07-0.34,0.13-0.67,0.2-0.99c0.07-0.33,0.15-0.65,0.23-0.98l0.9-3.57h1.47l0.91,3.57c0.08,0.33,0.16,0.65,0.24,0.98
		c0.07,0.33,0.15,0.66,0.22,0.99h0.06c0.07-0.34,0.13-0.67,0.18-0.99c0.06-0.33,0.12-0.65,0.18-0.98l0.83-3.57h1.51l-1.75,6.87
		h-1.92l-0.8-3.21c-0.08-0.33-0.14-0.65-0.21-0.97c-0.07-0.32-0.14-0.67-0.21-1.03h-0.06c-0.07,0.36-0.13,0.71-0.2,1.04
		s-0.14,0.65-0.21,0.98l-0.78,3.19H393.97z"/>
	<path d="M408.51,53.88c-0.87,0-1.56-0.32-2.06-0.95s-0.76-1.51-0.76-2.65c0-0.56,0.08-1.06,0.25-1.51
		c0.16-0.45,0.38-0.83,0.65-1.13c0.27-0.31,0.58-0.55,0.93-0.71c0.35-0.17,0.71-0.25,1.08-0.25c0.39,0,0.72,0.07,0.99,0.2
		s0.54,0.32,0.81,0.55l-0.06-1.11v-2.49h1.61v9.88h-1.33l-0.11-0.74h-0.06c-0.25,0.25-0.55,0.47-0.88,0.64
		C409.24,53.79,408.89,53.88,408.51,53.88z M408.91,52.55c0.51,0,0.99-0.26,1.44-0.77v-3.21c-0.24-0.21-0.48-0.36-0.71-0.45
		S409.18,48,408.95,48c-0.45,0-0.83,0.2-1.13,0.59c-0.31,0.39-0.46,0.95-0.46,1.68c0,0.75,0.13,1.31,0.4,1.7
		C408.02,52.35,408.4,52.55,408.91,52.55z"/>
	<path d="M416.05,53.88c-0.74,0-1.27-0.24-1.61-0.71c-0.34-0.47-0.5-1.15-0.5-2.02v-4.31h1.61v4.1c0,0.57,0.08,0.97,0.25,1.2
		c0.17,0.23,0.44,0.35,0.81,0.35c0.3,0,0.56-0.08,0.79-0.22c0.23-0.15,0.47-0.39,0.74-0.73v-4.7h1.61v6.87h-1.32l-0.13-1.01h-0.04
		c-0.3,0.35-0.62,0.64-0.97,0.85C416.93,53.77,416.52,53.88,416.05,53.88z"/>
	<path d="M421.79,53.71v-6.87h1.33l0.11,1.22h0.06c0.24-0.45,0.54-0.79,0.88-1.03c0.34-0.24,0.7-0.36,1.06-0.36
		c0.33,0,0.59,0.05,0.78,0.14l-0.28,1.4c-0.12-0.04-0.23-0.07-0.34-0.08s-0.23-0.03-0.38-0.03c-0.27,0-0.56,0.11-0.85,0.32
		c-0.3,0.21-0.56,0.58-0.77,1.1v4.2H421.79z"/>
	<path d="M427.82,45.63c-0.29,0-0.53-0.08-0.71-0.25s-0.28-0.39-0.28-0.66c0-0.27,0.09-0.49,0.28-0.67
		c0.19-0.17,0.42-0.26,0.71-0.26s0.53,0.09,0.71,0.26c0.19,0.17,0.28,0.39,0.28,0.67c0,0.27-0.09,0.49-0.28,0.66
		S428.11,45.63,427.82,45.63z M427.01,53.71v-6.87h1.61v6.87H427.01z"/>
	<path d="M430.68,53.71v-6.87h1.33l0.11,0.92h0.06c0.31-0.3,0.64-0.55,1-0.77c0.36-0.21,0.78-0.32,1.25-0.32
		c0.74,0,1.27,0.24,1.61,0.71s0.5,1.15,0.5,2.02v4.31h-1.61v-4.1c0-0.57-0.08-0.97-0.25-1.2s-0.44-0.35-0.83-0.35
		c-0.3,0-0.56,0.07-0.79,0.22c-0.23,0.15-0.49,0.36-0.78,0.64v4.8H430.68z"/>
	<path d="M440.91,56.75c-0.41,0-0.79-0.04-1.14-0.11c-0.35-0.07-0.65-0.19-0.9-0.34s-0.45-0.34-0.59-0.56
		c-0.15-0.22-0.22-0.49-0.22-0.78c0-0.29,0.08-0.56,0.25-0.8c0.17-0.25,0.41-0.47,0.73-0.67v-0.06c-0.18-0.11-0.32-0.26-0.44-0.45
		c-0.12-0.19-0.17-0.42-0.17-0.7c0-0.27,0.08-0.52,0.23-0.74c0.15-0.22,0.33-0.4,0.52-0.54v-0.06c-0.23-0.18-0.44-0.42-0.62-0.74
		c-0.18-0.31-0.27-0.67-0.27-1.08c0-0.39,0.07-0.74,0.22-1.05s0.35-0.57,0.59-0.78c0.25-0.21,0.53-0.37,0.86-0.48
		s0.67-0.16,1.04-0.16c0.19,0,0.37,0.02,0.54,0.05c0.17,0.03,0.33,0.07,0.47,0.12h2.46v1.19h-1.26c0.11,0.13,0.21,0.3,0.28,0.5
		c0.07,0.2,0.11,0.42,0.11,0.66c0,0.38-0.07,0.72-0.2,1.01c-0.14,0.29-0.32,0.53-0.55,0.73s-0.51,0.35-0.83,0.45
		c-0.32,0.1-0.66,0.15-1.02,0.15c-0.15,0-0.3-0.01-0.46-0.04c-0.16-0.03-0.32-0.08-0.48-0.14c-0.1,0.09-0.18,0.19-0.24,0.28
		c-0.06,0.09-0.09,0.22-0.09,0.38c0,0.2,0.08,0.35,0.25,0.46s0.46,0.17,0.88,0.17h1.22c0.83,0,1.46,0.13,1.88,0.4
		c0.42,0.27,0.64,0.7,0.64,1.29c0,0.34-0.09,0.65-0.26,0.95c-0.17,0.3-0.42,0.55-0.74,0.77s-0.7,0.38-1.16,0.51
		C441.98,56.69,441.47,56.75,440.91,56.75z M441.16,55.7c0.56,0,1.01-0.11,1.35-0.33c0.34-0.22,0.51-0.48,0.51-0.78
		c0-0.27-0.11-0.45-0.32-0.55c-0.21-0.09-0.51-0.14-0.9-0.14h-0.94c-0.37,0-0.69-0.03-0.94-0.1c-0.35,0.27-0.53,0.57-0.53,0.91
		c0,0.31,0.16,0.55,0.47,0.72C440.18,55.61,440.61,55.7,441.16,55.7z M440.99,50.52c0.33,0,0.61-0.12,0.84-0.36s0.35-0.58,0.35-1.03
		c0-0.43-0.12-0.76-0.34-1s-0.51-0.36-0.85-0.36s-0.62,0.12-0.85,0.35c-0.23,0.23-0.35,0.57-0.35,1.01c0,0.45,0.12,0.79,0.35,1.03
		C440.37,50.4,440.66,50.52,440.99,50.52z"/>
	<path d="M452.39,53.88c-0.58,0-1.12-0.1-1.62-0.31s-0.94-0.51-1.31-0.91c-0.37-0.4-0.66-0.9-0.88-1.48s-0.32-1.26-0.32-2.02
		c0-0.75,0.11-1.42,0.33-2.01c0.22-0.59,0.52-1.09,0.9-1.51c0.38-0.41,0.82-0.72,1.33-0.94s1.05-0.32,1.63-0.32
		c0.58,0,1.09,0.12,1.54,0.35s0.82,0.5,1.11,0.81l-0.87,1.05c-0.24-0.24-0.5-0.44-0.78-0.58c-0.28-0.14-0.6-0.22-0.95-0.22
		c-0.37,0-0.72,0.08-1.03,0.23c-0.31,0.15-0.58,0.37-0.81,0.66c-0.23,0.29-0.41,0.63-0.53,1.04c-0.13,0.41-0.19,0.87-0.19,1.39
		c0,1.04,0.23,1.86,0.68,2.46c0.45,0.59,1.07,0.89,1.84,0.89c0.41,0,0.77-0.09,1.09-0.26s0.61-0.4,0.87-0.68l0.87,1.02
		c-0.37,0.43-0.8,0.76-1.28,0.99S452.98,53.88,452.39,53.88z"/>
	<path d="M459.91,53.88c-0.6,0-1.14-0.11-1.64-0.33c-0.5-0.22-0.92-0.54-1.27-0.95c-0.35-0.42-0.63-0.92-0.83-1.5
		c-0.2-0.59-0.29-1.25-0.29-2c0-0.74,0.1-1.4,0.29-1.98c0.2-0.58,0.47-1.08,0.83-1.48s0.78-0.71,1.27-0.92
		c0.49-0.21,1.04-0.32,1.64-0.32s1.14,0.11,1.64,0.32c0.49,0.21,0.92,0.52,1.28,0.92s0.64,0.89,0.83,1.48
		c0.2,0.58,0.29,1.24,0.29,1.98c0,0.75-0.1,1.41-0.29,2c-0.2,0.59-0.47,1.09-0.83,1.5c-0.36,0.42-0.79,0.73-1.28,0.95
		C461.05,53.77,460.51,53.88,459.91,53.88z M459.91,52.46c0.36,0,0.69-0.08,0.98-0.24c0.29-0.16,0.54-0.38,0.74-0.68
		c0.21-0.29,0.36-0.65,0.48-1.06c0.11-0.42,0.17-0.88,0.17-1.39c0-1.03-0.21-1.83-0.64-2.42c-0.42-0.58-1-0.88-1.73-0.88
		c-0.73,0-1.3,0.29-1.73,0.88c-0.42,0.58-0.64,1.39-0.64,2.42c0,0.51,0.06,0.98,0.17,1.39c0.11,0.42,0.27,0.77,0.48,1.06
		s0.45,0.52,0.74,0.68C459.22,52.39,459.54,52.46,459.91,52.46z"/>
	<path d="M467.29,53.71l-2.86-9.16h1.72l1.29,4.61c0.15,0.52,0.28,1.02,0.4,1.48c0.12,0.47,0.25,0.97,0.41,1.5h0.06
		c0.16-0.53,0.3-1.03,0.41-1.5c0.12-0.47,0.25-0.96,0.38-1.48l1.27-4.61h1.67l-2.84,9.16H467.29z"/>
	<path d="M473.15,53.71v-9.16h1.62v9.16H473.15z"/>
	<path d="M477.1,53.71v-9.16h2.45c1.4,0,2.49,0.38,3.28,1.13c0.78,0.76,1.18,1.89,1.18,3.4c0,0.76-0.1,1.42-0.3,2
		c-0.2,0.58-0.49,1.06-0.87,1.45c-0.38,0.39-0.83,0.68-1.37,0.88c-0.54,0.2-1.15,0.29-1.83,0.29H477.1z M478.72,52.39h0.71
		c0.93,0,1.65-0.27,2.15-0.8c0.5-0.54,0.75-1.37,0.75-2.5c0-1.12-0.25-1.94-0.76-2.45c-0.5-0.51-1.22-0.77-2.14-0.77h-0.71V52.39z"
		/>
	<path d="M485.27,50.77v-1.18h3.33v1.18H485.27z"/>
	<path d="M490.23,53.71v-1.32h1.99v-5.85h-1.64v-1.01c0.45-0.08,0.83-0.18,1.16-0.3c0.32-0.12,0.62-0.26,0.9-0.43h1.2v7.59h1.75
		v1.32H490.23z"/>
	<path d="M499.42,53.88c-0.53,0-0.99-0.1-1.39-0.29c-0.39-0.2-0.72-0.43-0.99-0.71l0.87-0.98c0.17,0.2,0.38,0.36,0.64,0.48
		s0.52,0.19,0.79,0.19c0.28,0,0.54-0.06,0.79-0.17c0.25-0.11,0.46-0.3,0.65-0.55c0.19-0.26,0.34-0.59,0.45-1.01
		c0.12-0.42,0.18-0.94,0.2-1.55c-0.26,0.33-0.57,0.58-0.92,0.76c-0.35,0.18-0.7,0.27-1.02,0.27c-0.38,0-0.73-0.06-1.05-0.17
		c-0.32-0.11-0.59-0.28-0.82-0.51c-0.23-0.23-0.41-0.52-0.53-0.86c-0.13-0.34-0.19-0.75-0.19-1.22c0-0.45,0.08-0.85,0.22-1.21
		s0.35-0.67,0.6-0.92s0.55-0.45,0.89-0.58c0.34-0.13,0.7-0.2,1.08-0.2c0.43,0,0.84,0.09,1.23,0.26c0.39,0.17,0.74,0.44,1.03,0.79
		c0.29,0.36,0.53,0.81,0.7,1.35c0.17,0.55,0.26,1.19,0.26,1.94c0,0.87-0.1,1.61-0.29,2.23s-0.45,1.12-0.77,1.52
		c-0.32,0.4-0.7,0.69-1.12,0.88C500.31,53.78,499.87,53.88,499.42,53.88z M499.79,49.15c0.26,0,0.53-0.08,0.82-0.24
		c0.28-0.16,0.54-0.43,0.78-0.79c-0.08-0.78-0.28-1.35-0.58-1.71c-0.3-0.35-0.67-0.53-1.1-0.53c-0.36,0-0.68,0.14-0.94,0.43
		c-0.26,0.29-0.39,0.71-0.39,1.25c0,0.53,0.12,0.93,0.37,1.2S499.34,49.15,499.79,49.15z"/>
	<path d="M505.76,50.7c-0.05-0.34-0.04-0.64,0.04-0.92c0.07-0.28,0.17-0.54,0.31-0.77c0.13-0.23,0.29-0.45,0.46-0.65
		c0.17-0.2,0.34-0.4,0.49-0.59c0.15-0.19,0.28-0.38,0.38-0.57s0.15-0.39,0.15-0.6c0-0.34-0.1-0.61-0.3-0.81
		c-0.2-0.21-0.48-0.31-0.83-0.31c-0.29,0-0.55,0.07-0.78,0.2s-0.45,0.31-0.66,0.53l-0.9-0.83c0.31-0.35,0.67-0.65,1.1-0.88
		s0.9-0.34,1.43-0.34c0.36,0,0.7,0.05,1.01,0.15c0.31,0.1,0.57,0.25,0.79,0.44c0.22,0.2,0.39,0.44,0.52,0.73
		c0.13,0.29,0.19,0.63,0.19,1.01c0,0.3-0.05,0.57-0.16,0.8c-0.11,0.24-0.24,0.46-0.4,0.68c-0.16,0.21-0.33,0.42-0.51,0.62
		c-0.18,0.2-0.35,0.4-0.49,0.62s-0.26,0.44-0.35,0.69c-0.09,0.24-0.12,0.51-0.08,0.81H505.76z M506.47,53.88
		c-0.3,0-0.55-0.1-0.74-0.31s-0.29-0.47-0.29-0.78s0.1-0.58,0.29-0.78s0.44-0.31,0.74-0.31s0.55,0.1,0.75,0.31
		c0.2,0.21,0.3,0.47,0.3,0.78s-0.1,0.58-0.3,0.78C507.02,53.78,506.77,53.88,506.47,53.88z"/>
</g>
<g>
	<path d="M108.06,107.63c-0.51,0-0.95-0.09-1.29-0.26c-0.35-0.18-0.64-0.38-0.88-0.62l0.53-0.74c0.19,0.18,0.41,0.34,0.65,0.47
		c0.24,0.14,0.52,0.21,0.84,0.21c0.36,0,0.66-0.11,0.89-0.32c0.23-0.21,0.35-0.51,0.35-0.9c0-0.38-0.11-0.67-0.32-0.88
		s-0.5-0.31-0.85-0.31c-0.21,0-0.38,0.03-0.52,0.09c-0.14,0.06-0.31,0.15-0.5,0.27l-0.55-0.35l0.19-3.14h3.4v0.97h-2.4l-0.13,1.54
		c0.13-0.07,0.27-0.12,0.4-0.16c0.13-0.04,0.28-0.05,0.44-0.05c0.27,0,0.53,0.04,0.77,0.12c0.24,0.08,0.46,0.2,0.64,0.37
		c0.18,0.16,0.32,0.37,0.43,0.62c0.11,0.25,0.16,0.54,0.16,0.88c0,0.35-0.06,0.66-0.19,0.93c-0.12,0.27-0.29,0.5-0.49,0.69
		c-0.21,0.19-0.45,0.33-0.72,0.42C108.63,107.58,108.35,107.63,108.06,107.63z"/>
	<path d="M112.95,107.63c-0.38,0-0.71-0.07-0.99-0.21c-0.28-0.14-0.52-0.31-0.71-0.51l0.62-0.7c0.12,0.14,0.27,0.25,0.46,0.34
		s0.37,0.13,0.56,0.13c0.2,0,0.39-0.04,0.56-0.12c0.18-0.08,0.33-0.21,0.47-0.39c0.13-0.18,0.24-0.42,0.32-0.72
		c0.08-0.3,0.13-0.67,0.15-1.11c-0.19,0.23-0.41,0.42-0.66,0.54c-0.25,0.13-0.5,0.2-0.73,0.2c-0.27,0-0.52-0.04-0.75-0.12
		c-0.23-0.08-0.42-0.2-0.59-0.37c-0.16-0.16-0.29-0.37-0.38-0.62c-0.09-0.25-0.13-0.54-0.13-0.87c0-0.32,0.05-0.61,0.16-0.86
		c0.11-0.26,0.25-0.48,0.43-0.66s0.39-0.32,0.64-0.42c0.24-0.1,0.5-0.15,0.77-0.15c0.31,0,0.6,0.06,0.88,0.19s0.52,0.31,0.73,0.56
		c0.21,0.25,0.38,0.58,0.5,0.97c0.12,0.39,0.19,0.85,0.19,1.38c0,0.62-0.07,1.15-0.21,1.59s-0.32,0.8-0.55,1.08s-0.5,0.49-0.8,0.62
		C113.59,107.56,113.28,107.63,112.95,107.63z M113.22,104.25c0.19,0,0.38-0.06,0.58-0.17c0.2-0.12,0.39-0.31,0.56-0.57
		c-0.06-0.56-0.2-0.97-0.42-1.22c-0.22-0.25-0.48-0.38-0.79-0.38c-0.26,0-0.48,0.1-0.67,0.31c-0.19,0.21-0.28,0.5-0.28,0.89
		c0,0.38,0.09,0.67,0.26,0.86C112.65,104.15,112.9,104.25,113.22,104.25z"/>
	<path d="M117.77,104.99c-0.46,0-0.83-0.18-1.12-0.55c-0.29-0.36-0.44-0.88-0.44-1.53c0-0.66,0.15-1.17,0.44-1.53
		s0.67-0.54,1.12-0.54s0.83,0.18,1.12,0.54s0.44,0.87,0.44,1.53c0,0.66-0.15,1.17-0.44,1.53
		C118.6,104.81,118.23,104.99,117.77,104.99z M117.77,104.32c0.21,0,0.39-0.11,0.52-0.33c0.14-0.22,0.21-0.58,0.21-1.07
		c0-0.49-0.07-0.85-0.21-1.07s-0.31-0.33-0.52-0.33s-0.39,0.11-0.52,0.33s-0.21,0.57-0.21,1.07c0,0.49,0.07,0.85,0.21,1.07
		C117.38,104.21,117.55,104.32,117.77,104.32z M117.97,107.63l3.57-6.78h0.7l-3.56,6.78H117.97z M122.46,107.63
		c-0.46,0-0.83-0.18-1.12-0.54s-0.43-0.88-0.43-1.54s0.14-1.17,0.43-1.53c0.29-0.36,0.67-0.53,1.12-0.53s0.83,0.18,1.12,0.53
		c0.29,0.36,0.44,0.87,0.44,1.53s-0.15,1.17-0.44,1.54S122.92,107.63,122.46,107.63z M122.46,106.96c0.21,0,0.39-0.11,0.53-0.33
		c0.14-0.22,0.2-0.58,0.2-1.08s-0.07-0.85-0.2-1.07c-0.14-0.22-0.31-0.32-0.53-0.32s-0.39,0.11-0.52,0.32
		c-0.14,0.22-0.21,0.57-0.21,1.07s0.07,0.85,0.21,1.08S122.24,106.96,122.46,106.96z"/>
</g>
<rect x="77.53" y="110.15" class="st1" width="74.9" height="199.62"/>
<rect x="181.56" y="133.84" class="st1" width="74.9" height="175.93"/>
<rect x="285.6" y="140.6" class="st1" width="74.9" height="169.17"/>
<rect x="389.63" y="140.6" class="st1" width="74.9" height="169.17"/>
<rect x="493.66" y="147.37" class="st1" width="74.9" height="162.4"/>
<rect x="597.69" y="167.67" class="st1" width="74.9" height="142.1"/>
<g>
	<path d="M103.68,321.64c-0.43,0-0.83-0.08-1.19-0.23c-0.36-0.15-0.68-0.38-0.94-0.67c-0.26-0.29-0.46-0.65-0.61-1.07
		c-0.15-0.42-0.22-0.9-0.22-1.44c0-0.53,0.08-1,0.23-1.42s0.36-0.78,0.62-1.07c0.27-0.29,0.58-0.52,0.96-0.68
		c0.37-0.16,0.77-0.23,1.2-0.23c0.23,0,0.44,0.02,0.62,0.07c0.19,0.05,0.36,0.11,0.52,0.19c0.16,0.08,0.3,0.16,0.42,0.26
		c0.12,0.1,0.23,0.2,0.32,0.29l-0.46,0.54c-0.17-0.17-0.36-0.32-0.58-0.44c-0.22-0.12-0.5-0.18-0.83-0.18
		c-0.33,0-0.63,0.06-0.9,0.19c-0.27,0.12-0.49,0.3-0.68,0.53c-0.19,0.23-0.33,0.51-0.44,0.83c-0.1,0.33-0.16,0.69-0.16,1.1
		c0,0.41,0.05,0.79,0.15,1.12c0.1,0.33,0.24,0.61,0.42,0.84c0.18,0.23,0.41,0.41,0.68,0.54s0.58,0.19,0.94,0.19
		c0.23,0,0.46-0.03,0.67-0.1s0.38-0.17,0.52-0.29v-1.71h-1.39v-0.69h2.15v2.76c-0.21,0.22-0.49,0.4-0.84,0.54
		C104.52,321.57,104.12,321.64,103.68,321.64z"/>
	<path d="M109.08,321.64c-0.3,0-0.58-0.06-0.85-0.17s-0.51-0.28-0.71-0.5c-0.21-0.22-0.37-0.48-0.5-0.8
		c-0.12-0.32-0.19-0.67-0.19-1.08c0-0.41,0.06-0.77,0.19-1.08c0.12-0.32,0.29-0.58,0.5-0.8c0.21-0.22,0.44-0.39,0.71-0.5
		s0.56-0.17,0.85-0.17s0.58,0.06,0.85,0.17s0.51,0.28,0.71,0.5c0.21,0.22,0.37,0.49,0.5,0.8s0.19,0.68,0.19,1.08
		c0,0.4-0.06,0.76-0.19,1.08s-0.29,0.58-0.5,0.8s-0.44,0.38-0.71,0.5S109.38,321.64,109.08,321.64z M109.08,320.96
		c0.21,0,0.4-0.05,0.57-0.14s0.32-0.22,0.45-0.38c0.12-0.16,0.22-0.36,0.28-0.58c0.07-0.23,0.1-0.48,0.1-0.76s-0.03-0.54-0.1-0.76
		c-0.07-0.23-0.16-0.43-0.28-0.6c-0.12-0.17-0.27-0.29-0.45-0.38s-0.36-0.13-0.57-0.13s-0.4,0.04-0.57,0.13s-0.32,0.22-0.45,0.38
		c-0.12,0.17-0.22,0.37-0.28,0.6c-0.07,0.23-0.1,0.48-0.1,0.76s0.03,0.53,0.1,0.76c0.07,0.23,0.16,0.42,0.28,0.58
		c0.12,0.16,0.27,0.29,0.45,0.38S108.88,320.96,109.08,320.96z"/>
	<path d="M114.5,321.64c-0.3,0-0.58-0.06-0.85-0.17s-0.51-0.28-0.71-0.5c-0.21-0.22-0.37-0.48-0.5-0.8
		c-0.12-0.32-0.19-0.67-0.19-1.08c0-0.41,0.06-0.77,0.19-1.08c0.12-0.32,0.29-0.58,0.5-0.8c0.21-0.22,0.44-0.39,0.71-0.5
		s0.56-0.17,0.85-0.17s0.58,0.06,0.85,0.17s0.51,0.28,0.71,0.5c0.21,0.22,0.37,0.49,0.5,0.8s0.19,0.68,0.19,1.08
		c0,0.4-0.06,0.76-0.19,1.08s-0.29,0.58-0.5,0.8s-0.44,0.38-0.71,0.5S114.8,321.64,114.5,321.64z M114.5,320.96
		c0.21,0,0.4-0.05,0.57-0.14s0.32-0.22,0.45-0.38c0.12-0.16,0.22-0.36,0.28-0.58c0.07-0.23,0.1-0.48,0.1-0.76s-0.03-0.54-0.1-0.76
		c-0.07-0.23-0.16-0.43-0.28-0.6c-0.12-0.17-0.27-0.29-0.45-0.38s-0.36-0.13-0.57-0.13s-0.4,0.04-0.57,0.13s-0.32,0.22-0.45,0.38
		c-0.12,0.17-0.22,0.37-0.28,0.6c-0.07,0.23-0.1,0.48-0.1,0.76s0.03,0.53,0.1,0.76c0.07,0.23,0.16,0.42,0.28,0.58
		c0.12,0.16,0.27,0.29,0.45,0.38S114.3,320.96,114.5,320.96z"/>
	<path d="M119.67,323.76c-0.3,0-0.57-0.03-0.82-0.08c-0.25-0.06-0.46-0.14-0.64-0.25c-0.18-0.11-0.31-0.25-0.41-0.41
		c-0.1-0.16-0.15-0.35-0.15-0.56c0-0.21,0.06-0.4,0.19-0.59c0.13-0.19,0.3-0.36,0.52-0.51v-0.04c-0.12-0.07-0.22-0.17-0.31-0.3
		s-0.12-0.29-0.12-0.49c0-0.21,0.06-0.39,0.17-0.54s0.23-0.27,0.36-0.36v-0.04c-0.16-0.13-0.3-0.31-0.43-0.53
		c-0.13-0.22-0.2-0.48-0.2-0.78c0-0.27,0.05-0.51,0.15-0.72c0.1-0.21,0.23-0.4,0.4-0.54c0.17-0.15,0.36-0.27,0.58-0.35
		c0.22-0.08,0.46-0.12,0.71-0.12c0.13,0,0.26,0.01,0.38,0.04s0.22,0.05,0.31,0.08h1.69v0.63h-1c0.11,0.11,0.21,0.26,0.29,0.43
		c0.08,0.17,0.12,0.36,0.12,0.57c0,0.26-0.05,0.5-0.14,0.71c-0.09,0.21-0.22,0.39-0.38,0.53c-0.16,0.14-0.35,0.25-0.57,0.33
		c-0.22,0.08-0.45,0.12-0.69,0.12c-0.12,0-0.24-0.01-0.37-0.04c-0.13-0.03-0.25-0.07-0.36-0.12c-0.09,0.07-0.16,0.16-0.22,0.25
		c-0.06,0.09-0.09,0.2-0.09,0.33c0,0.15,0.06,0.28,0.18,0.38s0.35,0.15,0.68,0.15h0.94c0.57,0,0.99,0.09,1.27,0.27
		c0.28,0.18,0.42,0.48,0.42,0.88c0,0.23-0.06,0.44-0.17,0.65s-0.28,0.38-0.49,0.54s-0.47,0.27-0.77,0.37
		C120.39,323.71,120.05,323.76,119.67,323.76z M119.79,323.19c0.23,0,0.44-0.03,0.63-0.08s0.35-0.13,0.49-0.22
		c0.13-0.09,0.24-0.2,0.31-0.32c0.07-0.12,0.11-0.24,0.11-0.37c0-0.23-0.08-0.38-0.25-0.47c-0.17-0.09-0.41-0.13-0.73-0.13h-0.84
		c-0.09,0-0.19,0-0.3-0.01c-0.11-0.01-0.22-0.03-0.33-0.07c-0.17,0.13-0.3,0.26-0.38,0.4c-0.08,0.14-0.12,0.28-0.12,0.42
		c0,0.26,0.12,0.47,0.38,0.62C119.01,323.11,119.35,323.19,119.79,323.19z M119.67,319.43c0.14,0,0.27-0.03,0.4-0.08
		s0.23-0.13,0.33-0.23c0.1-0.1,0.17-0.22,0.23-0.36c0.05-0.14,0.08-0.31,0.08-0.49c0-0.36-0.1-0.64-0.3-0.83
		c-0.2-0.2-0.44-0.29-0.73-0.29s-0.53,0.1-0.73,0.29s-0.3,0.47-0.3,0.83c0,0.18,0.03,0.34,0.08,0.49c0.05,0.14,0.13,0.26,0.23,0.36
		c0.1,0.1,0.21,0.18,0.33,0.23S119.53,319.43,119.67,319.43z"/>
	<path d="M123.94,321.64c-0.31,0-0.54-0.09-0.67-0.28s-0.2-0.46-0.2-0.82v-6.14h0.82v6.2c0,0.13,0.02,0.23,0.07,0.28
		c0.05,0.05,0.1,0.08,0.16,0.08c0.03,0,0.05,0,0.07,0s0.06-0.01,0.1-0.02l0.11,0.62c-0.05,0.03-0.12,0.05-0.19,0.06
		C124.15,321.63,124.06,321.64,123.94,321.64z"/>
	<path d="M127.59,321.64c-0.33,0-0.63-0.06-0.92-0.17c-0.28-0.12-0.53-0.28-0.74-0.5c-0.21-0.22-0.38-0.48-0.49-0.79
		c-0.12-0.31-0.18-0.67-0.18-1.07s0.06-0.76,0.19-1.08c0.12-0.32,0.29-0.58,0.49-0.8c0.2-0.22,0.44-0.39,0.7-0.5
		c0.26-0.12,0.53-0.18,0.81-0.18c0.31,0,0.58,0.05,0.82,0.16c0.24,0.11,0.45,0.26,0.61,0.46c0.16,0.2,0.29,0.44,0.38,0.72
		c0.09,0.28,0.13,0.59,0.13,0.94c0,0.09,0,0.17,0,0.25c0,0.08-0.01,0.16-0.03,0.21h-3.28c0.03,0.52,0.19,0.93,0.48,1.24
		c0.29,0.3,0.67,0.46,1.14,0.46c0.23,0,0.45-0.04,0.65-0.1c0.2-0.07,0.38-0.16,0.56-0.28l0.29,0.54c-0.21,0.13-0.45,0.25-0.71,0.35
		C128.22,321.59,127.93,321.64,127.59,321.64z M126.06,318.7h2.6c0-0.49-0.1-0.87-0.31-1.12c-0.21-0.26-0.5-0.38-0.88-0.38
		c-0.17,0-0.34,0.03-0.5,0.1c-0.16,0.07-0.3,0.17-0.42,0.3c-0.13,0.13-0.23,0.29-0.32,0.47
		C126.14,318.25,126.09,318.46,126.06,318.7z"/>
</g>
<path d="M200.6,321.52v-6.56h1l1.26,3.5c0.08,0.23,0.16,0.46,0.24,0.68c0.08,0.23,0.15,0.46,0.24,0.68h0.04
	c0.08-0.23,0.15-0.45,0.23-0.68c0.07-0.23,0.14-0.46,0.22-0.68l1.24-3.5h1.01v6.56h-0.78v-3.61c0-0.29,0.01-0.62,0.04-0.97
	c0.03-0.35,0.05-0.68,0.07-0.97h-0.04l-0.52,1.49l-1.24,3.4h-0.55l-1.24-3.4l-0.52-1.49h-0.04c0.02,0.29,0.04,0.62,0.07,0.97
	c0.02,0.35,0.03,0.68,0.03,0.97v3.61H200.6z M208.21,315.66c-0.16,0-0.29-0.05-0.4-0.15c-0.11-0.1-0.17-0.23-0.17-0.38
	c0-0.16,0.06-0.29,0.17-0.39c0.11-0.1,0.24-0.14,0.4-0.14c0.16,0,0.29,0.05,0.4,0.14c0.11,0.1,0.16,0.23,0.16,0.39
	c0,0.15-0.05,0.28-0.16,0.38C208.51,315.61,208.37,315.66,208.21,315.66z M207.79,321.52v-4.86h0.82v4.86H207.79z M212.17,321.64
	c-0.32,0-0.62-0.06-0.9-0.17s-0.52-0.28-0.72-0.49c-0.2-0.22-0.36-0.48-0.48-0.8c-0.12-0.32-0.17-0.67-0.17-1.07
	c0-0.41,0.06-0.77,0.19-1.08c0.13-0.32,0.3-0.59,0.51-0.81c0.21-0.22,0.46-0.39,0.74-0.5c0.28-0.11,0.58-0.17,0.9-0.17
	c0.32,0,0.59,0.06,0.82,0.17c0.23,0.11,0.43,0.25,0.6,0.4l-0.42,0.54c-0.14-0.13-0.29-0.23-0.45-0.31
	c-0.16-0.08-0.33-0.12-0.52-0.12c-0.22,0-0.42,0.05-0.61,0.14c-0.19,0.09-0.35,0.22-0.48,0.38c-0.13,0.17-0.24,0.37-0.32,0.6
	c-0.08,0.23-0.12,0.49-0.12,0.77s0.04,0.53,0.11,0.76c0.07,0.23,0.18,0.42,0.31,0.59c0.13,0.16,0.29,0.29,0.47,0.38
	c0.19,0.09,0.39,0.13,0.61,0.13c0.23,0,0.43-0.05,0.62-0.14c0.19-0.1,0.36-0.21,0.51-0.35l0.36,0.55c-0.22,0.19-0.46,0.35-0.73,0.46
	C212.75,321.58,212.47,321.64,212.17,321.64z M214.81,321.52v-4.86h0.68l0.07,0.88h0.03c0.17-0.31,0.37-0.55,0.6-0.73
	c0.24-0.18,0.49-0.27,0.77-0.27c0.19,0,0.37,0.03,0.52,0.1l-0.16,0.72c-0.08-0.03-0.15-0.05-0.22-0.06
	c-0.07-0.01-0.15-0.02-0.25-0.02c-0.21,0-0.42,0.08-0.64,0.25c-0.22,0.17-0.42,0.46-0.59,0.87v3.12H214.81z M220.07,321.64
	c-0.3,0-0.59-0.06-0.86-0.17c-0.27-0.11-0.51-0.28-0.71-0.49c-0.21-0.22-0.37-0.48-0.49-0.8c-0.12-0.32-0.18-0.67-0.18-1.07
	c0-0.41,0.06-0.77,0.18-1.08c0.12-0.32,0.29-0.59,0.49-0.81c0.21-0.22,0.45-0.39,0.71-0.5c0.27-0.11,0.56-0.17,0.86-0.17
	c0.3,0,0.58,0.06,0.85,0.17c0.27,0.11,0.51,0.28,0.71,0.5c0.21,0.22,0.37,0.49,0.49,0.81c0.12,0.32,0.19,0.68,0.19,1.08
	c0,0.4-0.06,0.76-0.19,1.07c-0.12,0.32-0.29,0.58-0.49,0.8c-0.21,0.22-0.44,0.38-0.71,0.49S220.37,321.64,220.07,321.64z
	 M220.07,320.96c0.21,0,0.4-0.04,0.57-0.13c0.17-0.09,0.32-0.22,0.45-0.38c0.12-0.16,0.22-0.36,0.28-0.59
	c0.07-0.23,0.1-0.48,0.1-0.76s-0.03-0.54-0.1-0.77c-0.07-0.23-0.16-0.43-0.28-0.6c-0.12-0.17-0.27-0.29-0.45-0.38
	c-0.17-0.09-0.36-0.14-0.57-0.14c-0.21,0-0.4,0.05-0.57,0.14c-0.17,0.09-0.32,0.22-0.44,0.38c-0.12,0.17-0.22,0.37-0.29,0.6
	c-0.07,0.23-0.1,0.49-0.1,0.77s0.03,0.53,0.1,0.76c0.07,0.23,0.16,0.42,0.29,0.59c0.12,0.16,0.27,0.29,0.44,0.38
	C219.68,320.91,219.87,320.96,220.07,320.96z M224.87,321.64c-0.35,0-0.68-0.06-0.99-0.19c-0.31-0.13-0.59-0.29-0.82-0.48l0.41-0.55
	c0.21,0.17,0.43,0.31,0.65,0.42c0.22,0.11,0.48,0.16,0.77,0.16c0.32,0,0.56-0.07,0.72-0.22c0.16-0.15,0.24-0.33,0.24-0.54
	c0-0.13-0.03-0.24-0.1-0.33c-0.07-0.09-0.15-0.18-0.25-0.24c-0.1-0.07-0.22-0.13-0.36-0.18c-0.13-0.05-0.27-0.11-0.4-0.16
	c-0.17-0.06-0.35-0.13-0.52-0.21c-0.17-0.08-0.33-0.17-0.46-0.28c-0.14-0.11-0.25-0.24-0.34-0.38c-0.09-0.15-0.13-0.32-0.13-0.53
	c0-0.19,0.04-0.38,0.11-0.55c0.08-0.17,0.19-0.32,0.33-0.44c0.14-0.12,0.32-0.22,0.53-0.29c0.21-0.07,0.44-0.1,0.7-0.1
	c0.31,0,0.59,0.05,0.85,0.16c0.26,0.11,0.48,0.24,0.66,0.39l-0.39,0.52c-0.17-0.13-0.34-0.23-0.52-0.31
	c-0.18-0.08-0.38-0.12-0.59-0.12c-0.31,0-0.53,0.07-0.68,0.21c-0.14,0.14-0.21,0.3-0.21,0.49c0,0.11,0.03,0.21,0.09,0.29
	c0.06,0.08,0.14,0.16,0.24,0.22c0.1,0.06,0.21,0.12,0.35,0.17s0.26,0.1,0.4,0.15c0.17,0.07,0.35,0.14,0.52,0.21
	c0.18,0.07,0.34,0.17,0.48,0.27c0.14,0.11,0.26,0.25,0.35,0.4c0.09,0.16,0.13,0.35,0.13,0.58c0,0.2-0.04,0.39-0.11,0.56
	c-0.08,0.17-0.19,0.33-0.34,0.46c-0.15,0.13-0.34,0.24-0.56,0.32C225.42,321.6,225.16,321.64,224.87,321.64z M229.68,321.64
	c-0.3,0-0.59-0.06-0.86-0.17c-0.27-0.11-0.51-0.28-0.71-0.49c-0.21-0.22-0.37-0.48-0.49-0.8c-0.12-0.32-0.18-0.67-0.18-1.07
	c0-0.41,0.06-0.77,0.18-1.08c0.12-0.32,0.29-0.59,0.49-0.81c0.21-0.22,0.45-0.39,0.71-0.5c0.27-0.11,0.56-0.17,0.86-0.17
	c0.3,0,0.58,0.06,0.85,0.17c0.27,0.11,0.51,0.28,0.71,0.5c0.21,0.22,0.37,0.49,0.49,0.81c0.12,0.32,0.19,0.68,0.19,1.08
	c0,0.4-0.06,0.76-0.19,1.07c-0.12,0.32-0.29,0.58-0.49,0.8c-0.21,0.22-0.44,0.38-0.71,0.49S229.98,321.64,229.68,321.64z
	 M229.68,320.96c0.21,0,0.4-0.04,0.57-0.13c0.17-0.09,0.32-0.22,0.45-0.38c0.12-0.16,0.22-0.36,0.28-0.59
	c0.07-0.23,0.1-0.48,0.1-0.76s-0.03-0.54-0.1-0.77c-0.07-0.23-0.16-0.43-0.28-0.6c-0.12-0.17-0.27-0.29-0.45-0.38
	c-0.17-0.09-0.36-0.14-0.57-0.14c-0.21,0-0.4,0.05-0.57,0.14c-0.17,0.09-0.32,0.22-0.44,0.38c-0.12,0.17-0.22,0.37-0.29,0.6
	c-0.07,0.23-0.1,0.49-0.1,0.77s0.03,0.53,0.1,0.76c0.07,0.23,0.16,0.42,0.29,0.59c0.12,0.16,0.27,0.29,0.44,0.38
	C229.29,320.91,229.48,320.96,229.68,320.96z M233.35,321.52v-4.19h-0.66v-0.62l0.66-0.05v-0.77c0-0.5,0.11-0.89,0.34-1.18
	c0.23-0.29,0.59-0.43,1.08-0.43c0.15,0,0.3,0.02,0.43,0.05c0.14,0.03,0.26,0.07,0.38,0.11l-0.18,0.63
	c-0.18-0.08-0.36-0.12-0.55-0.12c-0.45,0-0.68,0.31-0.68,0.94v0.77h1.78l0.1-1.36h0.68v1.36h1.32v0.67h-1.32v2.7
	c0,0.3,0.06,0.53,0.17,0.7c0.11,0.16,0.31,0.24,0.59,0.24c0.09,0,0.18-0.01,0.28-0.04c0.1-0.03,0.19-0.06,0.27-0.09l0.16,0.62
	c-0.13,0.05-0.28,0.09-0.43,0.12c-0.16,0.04-0.31,0.06-0.46,0.06c-0.26,0-0.48-0.04-0.65-0.12c-0.18-0.08-0.32-0.19-0.43-0.33
	s-0.19-0.31-0.24-0.51c-0.05-0.2-0.07-0.42-0.07-0.66v-2.69h-1.74v4.19H233.35z"/>
<g>
	<path d="M303.81,321.52v-6.56h3.78v0.7h-2.95v2.22h2.5v0.7h-2.5v2.94H303.81z"/>
	<path d="M309.46,321.64c-0.41,0-0.75-0.12-1.02-0.36c-0.27-0.24-0.41-0.58-0.41-1.02c0-0.53,0.24-0.94,0.71-1.23
		c0.47-0.28,1.23-0.48,2.27-0.59c0-0.15-0.01-0.3-0.04-0.45c-0.03-0.15-0.08-0.28-0.16-0.39s-0.17-0.21-0.3-0.28
		c-0.13-0.07-0.29-0.1-0.5-0.1c-0.28,0-0.54,0.05-0.79,0.16s-0.47,0.23-0.66,0.36l-0.32-0.57c0.23-0.15,0.5-0.29,0.83-0.43
		c0.33-0.14,0.69-0.21,1.08-0.21c0.59,0,1.02,0.18,1.29,0.55s0.4,0.85,0.4,1.45v2.98h-0.68l-0.07-0.58h-0.03
		c-0.23,0.19-0.48,0.36-0.75,0.5S309.77,321.64,309.46,321.64z M309.7,320.98c0.23,0,0.45-0.05,0.66-0.17s0.43-0.27,0.66-0.49v-1.35
		c-0.41,0.05-0.75,0.12-1.03,0.19c-0.28,0.07-0.5,0.16-0.67,0.26c-0.17,0.1-0.29,0.21-0.37,0.34c-0.08,0.13-0.11,0.27-0.11,0.42
		c0,0.28,0.08,0.48,0.25,0.6C309.26,320.92,309.46,320.98,309.7,320.98z"/>
	<path d="M315.3,321.64c-0.32,0-0.62-0.06-0.9-0.17s-0.52-0.28-0.72-0.5c-0.2-0.22-0.36-0.48-0.48-0.8
		c-0.12-0.32-0.17-0.67-0.17-1.08c0-0.41,0.06-0.77,0.19-1.08c0.13-0.32,0.3-0.58,0.51-0.8c0.21-0.22,0.46-0.39,0.75-0.5
		c0.28-0.11,0.58-0.17,0.89-0.17c0.32,0,0.59,0.06,0.82,0.17s0.43,0.25,0.6,0.4l-0.42,0.54c-0.14-0.13-0.29-0.23-0.44-0.31
		c-0.16-0.08-0.33-0.12-0.53-0.12c-0.22,0-0.42,0.04-0.61,0.13s-0.35,0.22-0.48,0.38c-0.13,0.17-0.24,0.37-0.32,0.6
		c-0.08,0.23-0.12,0.48-0.12,0.76s0.04,0.53,0.11,0.76s0.17,0.42,0.3,0.58c0.13,0.16,0.29,0.29,0.48,0.38s0.39,0.14,0.61,0.14
		c0.23,0,0.44-0.05,0.62-0.15c0.19-0.1,0.36-0.21,0.52-0.34l0.36,0.55c-0.22,0.19-0.46,0.34-0.73,0.46S315.6,321.64,315.3,321.64z"
		/>
	<path d="M319.71,321.64c-0.33,0-0.63-0.06-0.92-0.17c-0.28-0.12-0.53-0.28-0.74-0.5s-0.38-0.48-0.5-0.79s-0.18-0.67-0.18-1.07
		s0.06-0.76,0.18-1.08c0.12-0.32,0.29-0.58,0.49-0.8s0.44-0.39,0.7-0.5c0.26-0.12,0.53-0.18,0.81-0.18c0.31,0,0.58,0.05,0.83,0.16
		c0.24,0.11,0.45,0.26,0.61,0.46c0.16,0.2,0.29,0.44,0.38,0.72c0.09,0.28,0.13,0.59,0.13,0.94c0,0.09,0,0.17,0,0.25
		c0,0.08-0.01,0.16-0.03,0.21h-3.28c0.03,0.52,0.2,0.93,0.49,1.24c0.29,0.3,0.67,0.46,1.13,0.46c0.23,0,0.45-0.04,0.65-0.1
		c0.2-0.07,0.38-0.16,0.56-0.28l0.29,0.54c-0.21,0.13-0.45,0.25-0.71,0.35C320.34,321.59,320.05,321.64,319.71,321.64z
		 M318.18,318.7h2.6c0-0.49-0.11-0.87-0.32-1.12c-0.21-0.26-0.5-0.38-0.88-0.38c-0.17,0-0.34,0.03-0.5,0.1
		c-0.16,0.07-0.3,0.17-0.42,0.3c-0.13,0.13-0.23,0.29-0.32,0.47S318.21,318.46,318.18,318.7z"/>
	<path d="M324.85,321.64c-0.23,0-0.46-0.05-0.71-0.17s-0.47-0.26-0.68-0.46h-0.03l-0.07,0.5h-0.66v-7.12h0.82v1.94l-0.02,0.88
		c0.22-0.19,0.46-0.36,0.72-0.49s0.53-0.2,0.8-0.2c0.31,0,0.59,0.06,0.83,0.18c0.24,0.12,0.44,0.28,0.61,0.5
		c0.16,0.22,0.29,0.48,0.37,0.78c0.08,0.3,0.12,0.64,0.12,1.02c0,0.41-0.06,0.78-0.17,1.11c-0.11,0.33-0.27,0.6-0.46,0.83
		c-0.19,0.23-0.42,0.4-0.67,0.52C325.4,321.58,325.13,321.64,324.85,321.64z M324.71,320.95c0.2,0,0.38-0.04,0.55-0.13
		s0.32-0.22,0.44-0.38c0.12-0.16,0.22-0.37,0.29-0.61c0.07-0.24,0.1-0.51,0.1-0.81c0-0.27-0.02-0.51-0.07-0.73
		c-0.05-0.22-0.12-0.41-0.23-0.56s-0.24-0.28-0.4-0.37c-0.16-0.09-0.36-0.13-0.58-0.13c-0.39,0-0.83,0.22-1.3,0.66v2.55
		c0.21,0.19,0.43,0.32,0.64,0.4C324.37,320.91,324.55,320.95,324.71,320.95z"/>
	<path d="M330.12,321.64c-0.3,0-0.58-0.06-0.85-0.17c-0.27-0.11-0.51-0.28-0.72-0.5c-0.21-0.22-0.37-0.48-0.5-0.8
		c-0.12-0.32-0.18-0.67-0.18-1.08c0-0.41,0.06-0.77,0.18-1.08c0.12-0.32,0.29-0.58,0.5-0.8c0.21-0.22,0.45-0.39,0.72-0.5
		c0.27-0.11,0.55-0.17,0.85-0.17s0.58,0.06,0.86,0.17c0.27,0.11,0.51,0.28,0.71,0.5c0.21,0.22,0.37,0.49,0.5,0.8
		c0.12,0.32,0.18,0.68,0.18,1.08c0,0.4-0.06,0.76-0.18,1.08c-0.12,0.32-0.29,0.58-0.5,0.8c-0.21,0.22-0.45,0.38-0.71,0.5
		C330.71,321.58,330.42,321.64,330.12,321.64z M330.12,320.96c0.21,0,0.4-0.05,0.57-0.14c0.17-0.09,0.32-0.22,0.44-0.38
		c0.12-0.16,0.22-0.36,0.29-0.58s0.1-0.48,0.1-0.76s-0.03-0.54-0.1-0.76c-0.07-0.23-0.16-0.43-0.29-0.6
		c-0.12-0.17-0.27-0.29-0.44-0.38c-0.17-0.09-0.36-0.13-0.57-0.13s-0.4,0.04-0.57,0.13c-0.17,0.09-0.32,0.22-0.44,0.38
		c-0.12,0.17-0.22,0.37-0.29,0.6c-0.07,0.23-0.1,0.48-0.1,0.76s0.03,0.53,0.1,0.76s0.16,0.42,0.29,0.58
		c0.12,0.16,0.27,0.29,0.44,0.38C329.73,320.91,329.92,320.96,330.12,320.96z"/>
	<path d="M335.54,321.64c-0.3,0-0.58-0.06-0.85-0.17c-0.27-0.11-0.51-0.28-0.72-0.5c-0.21-0.22-0.37-0.48-0.5-0.8
		c-0.12-0.32-0.18-0.67-0.18-1.08c0-0.41,0.06-0.77,0.18-1.08c0.12-0.32,0.29-0.58,0.5-0.8c0.21-0.22,0.45-0.39,0.72-0.5
		c0.27-0.11,0.55-0.17,0.85-0.17s0.58,0.06,0.86,0.17c0.27,0.11,0.51,0.28,0.71,0.5c0.21,0.22,0.37,0.49,0.5,0.8
		c0.12,0.32,0.18,0.68,0.18,1.08c0,0.4-0.06,0.76-0.18,1.08c-0.12,0.32-0.29,0.58-0.5,0.8c-0.21,0.22-0.45,0.38-0.71,0.5
		C336.13,321.58,335.84,321.64,335.54,321.64z M335.54,320.96c0.21,0,0.4-0.05,0.57-0.14c0.17-0.09,0.32-0.22,0.44-0.38
		c0.12-0.16,0.22-0.36,0.29-0.58s0.1-0.48,0.1-0.76s-0.03-0.54-0.1-0.76c-0.07-0.23-0.16-0.43-0.29-0.6
		c-0.12-0.17-0.27-0.29-0.44-0.38c-0.17-0.09-0.36-0.13-0.57-0.13s-0.4,0.04-0.57,0.13c-0.17,0.09-0.32,0.22-0.44,0.38
		c-0.12,0.17-0.22,0.37-0.29,0.6c-0.07,0.23-0.1,0.48-0.1,0.76s0.03,0.53,0.1,0.76s0.16,0.42,0.29,0.58
		c0.12,0.16,0.27,0.29,0.44,0.38C335.15,320.91,335.34,320.96,335.54,320.96z"/>
	<path d="M339.07,321.52v-7.12h0.81v4.82h0.03l2.07-2.56h0.91l-1.63,1.95l1.85,2.91h-0.9l-1.42-2.34l-0.91,1.06v1.28H339.07z"/>
</g>
<g>
	<path d="M410.2,321.52l2.22-6.56h0.94l2.22,6.56h-0.89l-0.62-2h-2.39l-0.63,2H410.2z M412.2,317.85l-0.31,1h1.97l-0.31-1
		c-0.12-0.37-0.23-0.73-0.34-1.09s-0.21-0.74-0.32-1.12h-0.04c-0.1,0.38-0.2,0.75-0.31,1.12S412.32,317.48,412.2,317.85z"/>
	<path d="M416.43,321.52v-4.86h0.68l0.07,0.7h0.03c0.21-0.23,0.45-0.43,0.7-0.58c0.25-0.16,0.52-0.24,0.82-0.24
		c0.37,0,0.67,0.08,0.88,0.25c0.21,0.16,0.36,0.39,0.46,0.69c0.25-0.28,0.51-0.5,0.76-0.67s0.54-0.26,0.83-0.26
		c0.5,0,0.87,0.16,1.12,0.48s0.37,0.79,0.37,1.42v3.08h-0.82v-2.97c0-0.46-0.07-0.79-0.22-1s-0.37-0.3-0.68-0.3
		c-0.37,0-0.77,0.25-1.22,0.75v3.52h-0.82v-2.97c0-0.46-0.07-0.79-0.22-1s-0.38-0.3-0.69-0.3c-0.37,0-0.77,0.25-1.22,0.75v3.52
		H416.43z"/>
	<path d="M425.84,321.64c-0.41,0-0.75-0.12-1.02-0.36c-0.27-0.24-0.41-0.58-0.41-1.02c0-0.53,0.24-0.94,0.71-1.23
		c0.47-0.28,1.23-0.48,2.27-0.59c0-0.15-0.01-0.3-0.04-0.45c-0.03-0.15-0.08-0.28-0.16-0.39s-0.17-0.21-0.3-0.28
		c-0.13-0.07-0.29-0.1-0.5-0.1c-0.28,0-0.54,0.05-0.79,0.16s-0.47,0.23-0.66,0.36l-0.32-0.57c0.23-0.15,0.5-0.29,0.83-0.43
		c0.33-0.14,0.69-0.21,1.08-0.21c0.59,0,1.02,0.18,1.29,0.55s0.4,0.85,0.4,1.45v2.98h-0.68l-0.07-0.58h-0.03
		c-0.23,0.19-0.48,0.36-0.75,0.5S426.15,321.64,425.84,321.64z M426.08,320.98c0.23,0,0.45-0.05,0.66-0.17s0.43-0.27,0.66-0.49
		v-1.35c-0.41,0.05-0.75,0.12-1.03,0.19c-0.28,0.07-0.5,0.16-0.67,0.26c-0.17,0.1-0.29,0.21-0.37,0.34
		c-0.08,0.13-0.11,0.27-0.11,0.42c0,0.28,0.08,0.48,0.25,0.6C425.64,320.92,425.84,320.98,426.08,320.98z"/>
	<path d="M429.25,321.52v-0.44l2.56-3.75h-2.28v-0.67h3.32v0.44l-2.56,3.75h2.64v0.67H429.25z"/>
	<path d="M435.81,321.64c-0.3,0-0.58-0.06-0.85-0.17c-0.27-0.11-0.51-0.28-0.72-0.5c-0.21-0.22-0.37-0.48-0.5-0.8
		c-0.12-0.32-0.18-0.67-0.18-1.08c0-0.41,0.06-0.77,0.18-1.08c0.12-0.32,0.29-0.58,0.5-0.8c0.21-0.22,0.45-0.39,0.72-0.5
		c0.27-0.11,0.55-0.17,0.85-0.17s0.58,0.06,0.86,0.17c0.27,0.11,0.51,0.28,0.71,0.5c0.21,0.22,0.37,0.49,0.5,0.8
		c0.12,0.32,0.18,0.68,0.18,1.08c0,0.4-0.06,0.76-0.18,1.08c-0.12,0.32-0.29,0.58-0.5,0.8c-0.21,0.22-0.45,0.38-0.71,0.5
		C436.4,321.58,436.11,321.64,435.81,321.64z M435.81,320.96c0.21,0,0.4-0.05,0.57-0.14c0.17-0.09,0.32-0.22,0.44-0.38
		c0.12-0.16,0.22-0.36,0.29-0.58s0.1-0.48,0.1-0.76s-0.03-0.54-0.1-0.76c-0.07-0.23-0.16-0.43-0.29-0.6
		c-0.12-0.17-0.27-0.29-0.44-0.38c-0.17-0.09-0.36-0.13-0.57-0.13s-0.4,0.04-0.57,0.13c-0.17,0.09-0.32,0.22-0.44,0.38
		c-0.12,0.17-0.22,0.37-0.29,0.6c-0.07,0.23-0.1,0.48-0.1,0.76s0.03,0.53,0.1,0.76s0.16,0.42,0.29,0.58
		c0.12,0.16,0.27,0.29,0.44,0.38C435.42,320.91,435.61,320.96,435.81,320.96z"/>
	<path d="M439.34,321.52v-4.86h0.68l0.07,0.7h0.03c0.23-0.23,0.48-0.43,0.74-0.58c0.26-0.16,0.55-0.24,0.9-0.24
		c0.51,0,0.89,0.16,1.12,0.48c0.24,0.32,0.35,0.79,0.35,1.42v3.08h-0.82v-2.97c0-0.46-0.07-0.79-0.22-1s-0.38-0.3-0.7-0.3
		c-0.25,0-0.48,0.06-0.67,0.19s-0.41,0.31-0.66,0.56v3.52H439.34z"/>
</g>
<g>
	<path d="M515.15,321.52v-2.54l-1.97-4.02h0.89l0.85,1.85c0.11,0.24,0.21,0.48,0.31,0.71s0.21,0.47,0.32,0.72h0.04
		c0.11-0.25,0.23-0.49,0.34-0.72s0.22-0.47,0.32-0.71l0.84-1.85h0.87l-1.97,4.02v2.54H515.15z"/>
	<path d="M520.25,321.64c-0.3,0-0.58-0.06-0.85-0.17c-0.27-0.11-0.51-0.28-0.72-0.5c-0.21-0.22-0.37-0.48-0.5-0.8
		c-0.12-0.32-0.18-0.67-0.18-1.08c0-0.41,0.06-0.77,0.18-1.08c0.12-0.32,0.29-0.58,0.5-0.8c0.21-0.22,0.45-0.39,0.72-0.5
		c0.27-0.11,0.55-0.17,0.85-0.17s0.58,0.06,0.86,0.17c0.27,0.11,0.51,0.28,0.71,0.5c0.21,0.22,0.37,0.49,0.5,0.8
		c0.12,0.32,0.18,0.68,0.18,1.08c0,0.4-0.06,0.76-0.18,1.08c-0.12,0.32-0.29,0.58-0.5,0.8c-0.21,0.22-0.45,0.38-0.71,0.5
		C520.84,321.58,520.55,321.64,520.25,321.64z M520.25,320.96c0.21,0,0.4-0.05,0.57-0.14c0.17-0.09,0.32-0.22,0.44-0.38
		c0.12-0.16,0.22-0.36,0.29-0.58s0.1-0.48,0.1-0.76s-0.03-0.54-0.1-0.76c-0.07-0.23-0.16-0.43-0.29-0.6
		c-0.12-0.17-0.27-0.29-0.44-0.38c-0.17-0.09-0.36-0.13-0.57-0.13s-0.4,0.04-0.57,0.13c-0.17,0.09-0.32,0.22-0.44,0.38
		c-0.12,0.17-0.22,0.37-0.29,0.6c-0.07,0.23-0.1,0.48-0.1,0.76s0.03,0.53,0.1,0.76s0.16,0.42,0.29,0.58
		c0.12,0.16,0.27,0.29,0.44,0.38C519.86,320.91,520.05,320.96,520.25,320.96z"/>
	<path d="M525.2,321.64c-0.52,0-0.9-0.16-1.13-0.48c-0.24-0.32-0.36-0.79-0.36-1.42v-3.08h0.83v2.97c0,0.46,0.07,0.79,0.21,1
		c0.14,0.2,0.38,0.3,0.7,0.3c0.25,0,0.48-0.07,0.67-0.2s0.41-0.34,0.64-0.62v-3.45h0.82v4.86h-0.68l-0.07-0.76h-0.03
		c-0.23,0.27-0.46,0.48-0.71,0.64S525.54,321.64,525.2,321.64z"/>
	<path d="M530.47,321.52v-5.86h-1.98v-0.7h4.8v0.7h-1.98v5.86H530.47z"/>
	<path d="M535.36,321.64c-0.52,0-0.9-0.16-1.13-0.48c-0.24-0.32-0.36-0.79-0.36-1.42v-3.08h0.83v2.97c0,0.46,0.07,0.79,0.21,1
		c0.14,0.2,0.38,0.3,0.7,0.3c0.25,0,0.48-0.07,0.67-0.2s0.41-0.34,0.64-0.62v-3.45h0.82v4.86h-0.68l-0.07-0.76h-0.03
		c-0.23,0.27-0.46,0.48-0.71,0.64S535.7,321.64,535.36,321.64z"/>
	<path d="M541.53,321.64c-0.23,0-0.46-0.05-0.71-0.17s-0.47-0.26-0.68-0.46h-0.03l-0.07,0.5h-0.66v-7.12h0.82v1.94l-0.02,0.88
		c0.22-0.19,0.46-0.36,0.72-0.49s0.53-0.2,0.8-0.2c0.31,0,0.59,0.06,0.83,0.18c0.24,0.12,0.44,0.28,0.61,0.5
		c0.16,0.22,0.29,0.48,0.37,0.78c0.08,0.3,0.12,0.64,0.12,1.02c0,0.41-0.06,0.78-0.17,1.11c-0.11,0.33-0.27,0.6-0.46,0.83
		c-0.19,0.23-0.42,0.4-0.67,0.52C542.08,321.58,541.81,321.64,541.53,321.64z M541.39,320.95c0.2,0,0.38-0.04,0.55-0.13
		s0.32-0.22,0.44-0.38c0.12-0.16,0.22-0.37,0.29-0.61c0.07-0.24,0.1-0.51,0.1-0.81c0-0.27-0.02-0.51-0.07-0.73
		c-0.05-0.22-0.12-0.41-0.23-0.56s-0.24-0.28-0.4-0.37c-0.16-0.09-0.36-0.13-0.58-0.13c-0.39,0-0.83,0.22-1.3,0.66v2.55
		c0.21,0.19,0.43,0.32,0.64,0.4C541.05,320.91,541.23,320.95,541.39,320.95z"/>
	<path d="M546.88,321.64c-0.33,0-0.63-0.06-0.92-0.17c-0.28-0.12-0.53-0.28-0.74-0.5s-0.38-0.48-0.5-0.79s-0.18-0.67-0.18-1.07
		s0.06-0.76,0.18-1.08c0.12-0.32,0.29-0.58,0.49-0.8s0.44-0.39,0.7-0.5c0.26-0.12,0.53-0.18,0.81-0.18c0.31,0,0.58,0.05,0.83,0.16
		c0.24,0.11,0.45,0.26,0.61,0.46c0.16,0.2,0.29,0.44,0.38,0.72c0.09,0.28,0.13,0.59,0.13,0.94c0,0.09,0,0.17,0,0.25
		c0,0.08-0.01,0.16-0.03,0.21h-3.28c0.03,0.52,0.2,0.93,0.49,1.24c0.29,0.3,0.67,0.46,1.13,0.46c0.23,0,0.45-0.04,0.65-0.1
		c0.2-0.07,0.38-0.16,0.56-0.28l0.29,0.54c-0.21,0.13-0.45,0.25-0.71,0.35C547.51,321.59,547.22,321.64,546.88,321.64z
		 M545.35,318.7h2.6c0-0.49-0.11-0.87-0.32-1.12c-0.21-0.26-0.5-0.38-0.88-0.38c-0.17,0-0.34,0.03-0.5,0.1
		c-0.16,0.07-0.3,0.17-0.42,0.3c-0.13,0.13-0.23,0.29-0.32,0.47S545.38,318.46,545.35,318.7z"/>
</g>
<g>
	<path d="M623.15,321.52l2.22-6.56h0.94l2.22,6.56h-0.89l-0.62-2h-2.39l-0.63,2H623.15z M625.15,317.85l-0.31,1h1.97l-0.31-1
		c-0.12-0.37-0.23-0.73-0.34-1.09s-0.21-0.74-0.32-1.12h-0.04c-0.1,0.38-0.2,0.75-0.31,1.12S625.27,317.48,625.15,317.85z"/>
	<path d="M629.38,323.57v-6.91h0.68l0.07,0.56h0.03c0.22-0.19,0.46-0.35,0.73-0.48c0.26-0.13,0.54-0.2,0.83-0.2
		c0.31,0,0.59,0.06,0.83,0.18c0.24,0.12,0.44,0.28,0.6,0.5s0.28,0.48,0.37,0.78c0.08,0.3,0.12,0.65,0.12,1.03
		c0,0.41-0.06,0.78-0.17,1.11c-0.11,0.32-0.27,0.6-0.46,0.82c-0.19,0.23-0.42,0.4-0.67,0.52c-0.25,0.12-0.52,0.17-0.8,0.17
		c-0.23,0-0.45-0.05-0.67-0.15c-0.22-0.1-0.45-0.24-0.67-0.41l0.02,0.85v1.64H629.38z M631.39,320.95c0.2,0,0.38-0.04,0.55-0.13
		s0.32-0.22,0.44-0.38c0.12-0.16,0.22-0.37,0.29-0.61c0.07-0.24,0.1-0.51,0.1-0.81c0-0.27-0.02-0.51-0.07-0.73
		c-0.05-0.22-0.12-0.41-0.23-0.56s-0.24-0.28-0.4-0.37c-0.16-0.09-0.36-0.13-0.58-0.13c-0.21,0-0.42,0.06-0.62,0.17
		s-0.44,0.28-0.68,0.49v2.55c0.22,0.19,0.43,0.32,0.64,0.4C631.05,320.91,631.23,320.95,631.39,320.95z"/>
	<path d="M634.93,323.57v-6.91h0.68l0.07,0.56h0.03c0.22-0.19,0.46-0.35,0.73-0.48c0.26-0.13,0.54-0.2,0.83-0.2
		c0.31,0,0.59,0.06,0.83,0.18c0.24,0.12,0.44,0.28,0.6,0.5s0.28,0.48,0.37,0.78c0.08,0.3,0.12,0.65,0.12,1.03
		c0,0.41-0.06,0.78-0.17,1.11c-0.11,0.32-0.27,0.6-0.46,0.82c-0.19,0.23-0.42,0.4-0.67,0.52c-0.25,0.12-0.52,0.17-0.8,0.17
		c-0.23,0-0.45-0.05-0.67-0.15c-0.22-0.1-0.45-0.24-0.67-0.41l0.02,0.85v1.64H634.93z M636.94,320.95c0.2,0,0.38-0.04,0.55-0.13
		s0.32-0.22,0.44-0.38c0.12-0.16,0.22-0.37,0.29-0.61c0.07-0.24,0.1-0.51,0.1-0.81c0-0.27-0.02-0.51-0.07-0.73
		c-0.05-0.22-0.12-0.41-0.23-0.56s-0.24-0.28-0.4-0.37c-0.16-0.09-0.36-0.13-0.58-0.13c-0.21,0-0.42,0.06-0.62,0.17
		s-0.44,0.28-0.68,0.49v2.55c0.22,0.19,0.43,0.32,0.64,0.4C636.6,320.91,636.78,320.95,636.94,320.95z"/>
	<path d="M641.35,321.64c-0.31,0-0.54-0.09-0.67-0.28c-0.13-0.19-0.2-0.46-0.2-0.82v-6.14h0.82v6.2c0,0.13,0.02,0.23,0.07,0.28
		c0.05,0.05,0.1,0.08,0.16,0.08c0.03,0,0.05,0,0.08,0s0.06-0.01,0.1-0.02l0.11,0.62c-0.05,0.03-0.12,0.05-0.19,0.06
		C641.56,321.63,641.47,321.64,641.35,321.64z"/>
	<path d="M645,321.64c-0.33,0-0.63-0.06-0.92-0.17c-0.28-0.12-0.53-0.28-0.74-0.5s-0.38-0.48-0.5-0.79s-0.18-0.67-0.18-1.07
		s0.06-0.76,0.18-1.08c0.12-0.32,0.29-0.58,0.49-0.8s0.44-0.39,0.7-0.5c0.26-0.12,0.53-0.18,0.81-0.18c0.31,0,0.58,0.05,0.83,0.16
		c0.24,0.11,0.45,0.26,0.61,0.46c0.16,0.2,0.29,0.44,0.38,0.72c0.09,0.28,0.13,0.59,0.13,0.94c0,0.09,0,0.17,0,0.25
		c0,0.08-0.01,0.16-0.03,0.21h-3.28c0.03,0.52,0.2,0.93,0.49,1.24c0.29,0.3,0.67,0.46,1.13,0.46c0.23,0,0.45-0.04,0.65-0.1
		c0.2-0.07,0.38-0.16,0.56-0.28l0.29,0.54c-0.21,0.13-0.45,0.25-0.71,0.35C645.63,321.59,645.34,321.64,645,321.64z M643.47,318.7
		h2.6c0-0.49-0.11-0.87-0.32-1.12c-0.21-0.26-0.5-0.38-0.88-0.38c-0.17,0-0.34,0.03-0.5,0.1c-0.16,0.07-0.3,0.17-0.42,0.3
		c-0.13,0.13-0.23,0.29-0.32,0.47S643.5,318.46,643.47,318.7z"/>
</g>
<g>
	<path d="M212.09,131.31c-0.51,0-0.95-0.09-1.29-0.26c-0.35-0.18-0.64-0.38-0.88-0.62l0.53-0.74c0.19,0.18,0.41,0.34,0.65,0.47
		c0.24,0.14,0.52,0.21,0.84,0.21c0.36,0,0.66-0.11,0.89-0.32c0.23-0.21,0.35-0.51,0.35-0.9c0-0.38-0.11-0.67-0.32-0.88
		s-0.5-0.31-0.85-0.31c-0.21,0-0.38,0.03-0.52,0.09c-0.14,0.06-0.31,0.15-0.5,0.27l-0.55-0.35l0.19-3.14h3.4v0.97h-2.4l-0.13,1.54
		c0.13-0.07,0.27-0.12,0.4-0.16c0.13-0.04,0.28-0.05,0.44-0.05c0.27,0,0.53,0.04,0.77,0.12c0.24,0.08,0.46,0.2,0.64,0.37
		c0.18,0.16,0.32,0.37,0.43,0.62c0.11,0.25,0.16,0.54,0.16,0.88c0,0.35-0.06,0.66-0.19,0.93c-0.12,0.27-0.29,0.5-0.49,0.69
		c-0.21,0.19-0.45,0.33-0.72,0.42C212.67,131.26,212.39,131.31,212.09,131.31z"/>
	<path d="M215.19,131.19v-0.67c0.44-0.43,0.84-0.82,1.2-1.18c0.36-0.36,0.66-0.69,0.91-1s0.44-0.59,0.58-0.86s0.2-0.52,0.2-0.76
		c0-0.34-0.09-0.61-0.27-0.81c-0.18-0.2-0.44-0.29-0.78-0.29c-0.25,0-0.47,0.07-0.67,0.21c-0.2,0.14-0.39,0.31-0.56,0.5l-0.64-0.64
		c0.29-0.31,0.59-0.55,0.9-0.72s0.69-0.26,1.12-0.26c0.31,0,0.58,0.05,0.83,0.14s0.46,0.22,0.63,0.39s0.31,0.38,0.41,0.62
		s0.15,0.51,0.15,0.8c0,0.28-0.06,0.57-0.19,0.86c-0.12,0.29-0.29,0.58-0.5,0.88s-0.46,0.6-0.73,0.92
		c-0.28,0.31-0.58,0.64-0.89,0.97c0.17-0.01,0.35-0.03,0.54-0.04s0.37-0.03,0.52-0.03h1.56v0.98H215.19z"/>
	<path d="M221.8,128.67c-0.46,0-0.83-0.18-1.12-0.55c-0.29-0.36-0.44-0.88-0.44-1.53c0-0.66,0.15-1.17,0.44-1.53
		s0.67-0.54,1.12-0.54s0.83,0.18,1.12,0.54s0.44,0.87,0.44,1.53c0,0.66-0.15,1.17-0.44,1.53
		C222.64,128.49,222.26,128.67,221.8,128.67z M221.8,128c0.21,0,0.39-0.11,0.52-0.33c0.14-0.22,0.21-0.58,0.21-1.07
		c0-0.49-0.07-0.85-0.21-1.07s-0.31-0.33-0.52-0.33s-0.39,0.11-0.52,0.33s-0.21,0.57-0.21,1.07c0,0.49,0.07,0.85,0.21,1.07
		C221.41,127.89,221.59,128,221.8,128z M222,131.31l3.57-6.78h0.7l-3.56,6.78H222z M226.49,131.31c-0.46,0-0.83-0.18-1.12-0.54
		s-0.43-0.88-0.43-1.54s0.14-1.17,0.43-1.53c0.29-0.36,0.67-0.53,1.12-0.53s0.83,0.18,1.12,0.53c0.29,0.36,0.44,0.87,0.44,1.53
		s-0.15,1.17-0.44,1.54S226.95,131.31,226.49,131.31z M226.49,130.64c0.21,0,0.39-0.11,0.53-0.33c0.14-0.22,0.2-0.58,0.2-1.08
		s-0.07-0.85-0.2-1.07c-0.14-0.22-0.31-0.32-0.53-0.32s-0.39,0.11-0.52,0.32c-0.14,0.22-0.21,0.57-0.21,1.07s0.07,0.85,0.21,1.08
		S226.28,130.64,226.49,130.64z"/>
</g>
<g>
	<path d="M316.12,138.08c-0.51,0-0.95-0.09-1.29-0.26c-0.35-0.18-0.64-0.38-0.88-0.62l0.53-0.74c0.19,0.18,0.41,0.34,0.65,0.47
		c0.24,0.14,0.52,0.21,0.84,0.21c0.36,0,0.66-0.11,0.88-0.32c0.23-0.21,0.35-0.51,0.35-0.9c0-0.38-0.11-0.67-0.32-0.88
		s-0.5-0.31-0.85-0.31c-0.21,0-0.38,0.03-0.52,0.09c-0.14,0.06-0.31,0.15-0.5,0.27l-0.55-0.35l0.19-3.14h3.4v0.97h-2.4l-0.13,1.54
		c0.13-0.07,0.27-0.12,0.4-0.16c0.13-0.04,0.28-0.05,0.45-0.05c0.27,0,0.53,0.04,0.77,0.12c0.24,0.08,0.46,0.2,0.63,0.37
		c0.18,0.16,0.32,0.37,0.43,0.62c0.11,0.25,0.16,0.54,0.16,0.88c0,0.35-0.06,0.66-0.19,0.93s-0.29,0.5-0.5,0.69
		c-0.21,0.19-0.44,0.33-0.71,0.42C316.7,138.03,316.42,138.08,316.12,138.08z"/>
	<path d="M321.4,138.08c-0.67,0-1.19-0.29-1.58-0.86c-0.39-0.57-0.58-1.39-0.58-2.47s0.19-1.9,0.58-2.45
		c0.39-0.55,0.91-0.83,1.58-0.83c0.67,0,1.19,0.28,1.58,0.83c0.39,0.55,0.58,1.37,0.58,2.44c0,1.08-0.19,1.91-0.58,2.47
		C322.6,137.79,322.07,138.08,321.4,138.08z M321.4,137.18c0.15,0,0.3-0.04,0.43-0.12c0.13-0.08,0.24-0.22,0.33-0.42
		c0.09-0.19,0.17-0.44,0.22-0.75s0.08-0.69,0.08-1.14c0-0.45-0.03-0.82-0.08-1.12s-0.13-0.55-0.22-0.74
		c-0.09-0.19-0.21-0.32-0.33-0.39c-0.13-0.08-0.27-0.12-0.43-0.12s-0.29,0.04-0.42,0.12c-0.13,0.08-0.24,0.21-0.33,0.39
		c-0.09,0.19-0.17,0.43-0.22,0.74c-0.05,0.3-0.08,0.68-0.08,1.12c0,0.45,0.03,0.83,0.08,1.14c0.05,0.31,0.13,0.56,0.22,0.75
		c0.09,0.19,0.21,0.33,0.33,0.42C321.11,137.14,321.25,137.18,321.4,137.18z"/>
	<path d="M325.83,135.44c-0.46,0-0.83-0.18-1.12-0.55c-0.29-0.36-0.44-0.88-0.44-1.53c0-0.66,0.15-1.17,0.44-1.53
		s0.67-0.54,1.12-0.54s0.83,0.18,1.12,0.54s0.43,0.87,0.43,1.53c0,0.66-0.14,1.17-0.43,1.53
		C326.67,135.26,326.29,135.44,325.83,135.44z M325.83,134.77c0.21,0,0.39-0.11,0.52-0.33c0.14-0.22,0.21-0.58,0.21-1.07
		c0-0.49-0.07-0.85-0.21-1.07s-0.31-0.33-0.52-0.33c-0.21,0-0.39,0.11-0.53,0.33s-0.21,0.57-0.21,1.07c0,0.49,0.07,0.85,0.21,1.07
		C325.45,134.66,325.62,134.77,325.83,134.77z M326.03,138.08l3.57-6.78h0.7l-3.56,6.78H326.03z M330.52,138.08
		c-0.46,0-0.83-0.18-1.12-0.54s-0.43-0.88-0.43-1.54s0.14-1.17,0.43-1.53c0.29-0.36,0.67-0.53,1.12-0.53s0.83,0.18,1.12,0.53
		c0.29,0.36,0.44,0.87,0.44,1.53s-0.15,1.17-0.44,1.54S330.98,138.08,330.52,138.08z M330.52,137.41c0.21,0,0.39-0.11,0.53-0.33
		s0.21-0.58,0.21-1.08s-0.07-0.85-0.21-1.07c-0.14-0.22-0.31-0.32-0.53-0.32c-0.21,0-0.39,0.11-0.52,0.32
		c-0.14,0.22-0.21,0.57-0.21,1.07s0.07,0.85,0.21,1.08C330.13,137.3,330.31,137.41,330.52,137.41z"/>
</g>
<g>
	<path d="M420.15,138.08c-0.51,0-0.95-0.09-1.29-0.26c-0.35-0.18-0.64-0.38-0.88-0.62l0.53-0.74c0.19,0.18,0.41,0.34,0.65,0.47
		c0.24,0.14,0.52,0.21,0.84,0.21c0.36,0,0.66-0.11,0.88-0.32c0.23-0.21,0.35-0.51,0.35-0.9c0-0.38-0.11-0.67-0.32-0.88
		s-0.5-0.31-0.85-0.31c-0.21,0-0.38,0.03-0.52,0.09c-0.14,0.06-0.31,0.15-0.5,0.27l-0.55-0.35l0.19-3.14h3.4v0.97h-2.4l-0.13,1.54
		c0.13-0.07,0.27-0.12,0.4-0.16c0.13-0.04,0.28-0.05,0.45-0.05c0.27,0,0.53,0.04,0.77,0.12c0.24,0.08,0.46,0.2,0.63,0.37
		c0.18,0.16,0.32,0.37,0.43,0.62c0.11,0.25,0.16,0.54,0.16,0.88c0,0.35-0.06,0.66-0.19,0.93s-0.29,0.5-0.5,0.69
		c-0.21,0.19-0.44,0.33-0.71,0.42C420.73,138.03,420.45,138.08,420.15,138.08z"/>
	<path d="M425.43,138.08c-0.67,0-1.19-0.29-1.58-0.86c-0.39-0.57-0.58-1.39-0.58-2.47s0.19-1.9,0.58-2.45
		c0.39-0.55,0.91-0.83,1.58-0.83c0.67,0,1.19,0.28,1.58,0.83c0.39,0.55,0.58,1.37,0.58,2.44c0,1.08-0.19,1.91-0.58,2.47
		C426.63,137.79,426.1,138.08,425.43,138.08z M425.43,137.18c0.15,0,0.3-0.04,0.43-0.12c0.13-0.08,0.24-0.22,0.33-0.42
		c0.09-0.19,0.17-0.44,0.22-0.75s0.08-0.69,0.08-1.14c0-0.45-0.03-0.82-0.08-1.12s-0.13-0.55-0.22-0.74
		c-0.09-0.19-0.21-0.32-0.33-0.39c-0.13-0.08-0.27-0.12-0.43-0.12s-0.29,0.04-0.42,0.12c-0.13,0.08-0.24,0.21-0.33,0.39
		c-0.09,0.19-0.17,0.43-0.22,0.74c-0.05,0.3-0.08,0.68-0.08,1.12c0,0.45,0.03,0.83,0.08,1.14c0.05,0.31,0.13,0.56,0.22,0.75
		c0.09,0.19,0.21,0.33,0.33,0.42C425.14,137.14,425.28,137.18,425.43,137.18z"/>
	<path d="M429.86,135.44c-0.46,0-0.83-0.18-1.12-0.55c-0.29-0.36-0.44-0.88-0.44-1.53c0-0.66,0.15-1.17,0.44-1.53
		s0.67-0.54,1.12-0.54s0.83,0.18,1.12,0.54s0.43,0.87,0.43,1.53c0,0.66-0.14,1.17-0.43,1.53
		C430.7,135.26,430.32,135.44,429.86,135.44z M429.86,134.77c0.21,0,0.39-0.11,0.52-0.33c0.14-0.22,0.21-0.58,0.21-1.07
		c0-0.49-0.07-0.85-0.21-1.07s-0.31-0.33-0.52-0.33c-0.21,0-0.39,0.11-0.53,0.33s-0.21,0.57-0.21,1.07c0,0.49,0.07,0.85,0.21,1.07
		C429.48,134.66,429.65,134.77,429.86,134.77z M430.06,138.08l3.57-6.78h0.7l-3.56,6.78H430.06z M434.55,138.08
		c-0.46,0-0.83-0.18-1.12-0.54s-0.43-0.88-0.43-1.54s0.14-1.17,0.43-1.53c0.29-0.36,0.67-0.53,1.12-0.53s0.83,0.18,1.12,0.53
		c0.29,0.36,0.44,0.87,0.44,1.53s-0.15,1.17-0.44,1.54S435.01,138.08,434.55,138.08z M434.55,137.41c0.21,0,0.39-0.11,0.53-0.33
		s0.21-0.58,0.21-1.08s-0.07-0.85-0.21-1.07c-0.14-0.22-0.31-0.32-0.53-0.32c-0.21,0-0.39,0.11-0.52,0.32
		c-0.14,0.22-0.21,0.57-0.21,1.07s0.07,0.85,0.21,1.08C434.17,137.3,434.34,137.41,434.55,137.41z"/>
</g>
<g>
	<path d="M524.76,144.73v-1.64h-2.81v-0.78l2.52-3.94h1.37v3.83h0.8v0.89h-0.8v1.64H524.76z M523.09,142.2h1.67v-1.44
		c0-0.19,0-0.41,0.01-0.66s0.02-0.47,0.04-0.66h-0.04c-0.08,0.17-0.16,0.33-0.25,0.49s-0.18,0.33-0.27,0.5L523.09,142.2z"/>
	<path d="M529.47,144.85c-0.31,0-0.6-0.04-0.87-0.13c-0.26-0.09-0.49-0.21-0.68-0.36c-0.19-0.15-0.34-0.34-0.45-0.55
		c-0.11-0.21-0.17-0.45-0.17-0.71c0-0.2,0.03-0.38,0.09-0.54s0.15-0.31,0.25-0.45c0.11-0.13,0.23-0.25,0.37-0.36
		c0.14-0.11,0.28-0.2,0.43-0.28v-0.04c-0.25-0.17-0.45-0.38-0.62-0.62c-0.17-0.24-0.25-0.53-0.25-0.87c0-0.26,0.05-0.49,0.15-0.7
		c0.1-0.21,0.23-0.38,0.4-0.53c0.17-0.15,0.37-0.26,0.61-0.34s0.49-0.12,0.76-0.12c0.29,0,0.54,0.04,0.78,0.12
		c0.23,0.08,0.43,0.2,0.59,0.35c0.16,0.15,0.29,0.33,0.38,0.54s0.13,0.45,0.13,0.71c0,0.16-0.02,0.31-0.08,0.46
		c-0.05,0.14-0.11,0.28-0.19,0.4c-0.08,0.12-0.17,0.24-0.28,0.34c-0.1,0.1-0.21,0.19-0.3,0.27v0.04c0.15,0.08,0.29,0.17,0.42,0.27
		c0.13,0.1,0.25,0.22,0.35,0.36c0.1,0.13,0.18,0.28,0.24,0.45c0.06,0.17,0.09,0.36,0.09,0.57c0,0.25-0.05,0.48-0.15,0.69
		c-0.1,0.21-0.25,0.39-0.44,0.55s-0.41,0.28-0.68,0.37C530.09,144.81,529.79,144.85,529.47,144.85z M529.49,144.03
		c0.31,0,0.56-0.08,0.75-0.25c0.2-0.17,0.29-0.4,0.29-0.7c0-0.17-0.04-0.32-0.12-0.44c-0.08-0.12-0.19-0.23-0.32-0.33
		s-0.3-0.19-0.49-0.27c-0.19-0.08-0.39-0.16-0.6-0.25c-0.2,0.15-0.37,0.32-0.5,0.52s-0.2,0.42-0.2,0.67c0,0.32,0.11,0.58,0.34,0.76
		C528.89,143.93,529.17,144.03,529.49,144.03z M529.89,141.14c0.17-0.17,0.3-0.35,0.39-0.53s0.13-0.37,0.13-0.57
		c0-0.28-0.08-0.51-0.24-0.69c-0.16-0.18-0.4-0.28-0.7-0.28c-0.25,0-0.45,0.08-0.62,0.23c-0.17,0.15-0.25,0.36-0.25,0.64
		c0,0.16,0.03,0.3,0.1,0.42c0.07,0.12,0.16,0.23,0.28,0.32s0.25,0.17,0.41,0.25C529.55,141,529.71,141.07,529.89,141.14z"/>
	<path d="M533.89,142.21c-0.46,0-0.83-0.18-1.12-0.55c-0.29-0.36-0.44-0.88-0.44-1.53c0-0.66,0.15-1.17,0.44-1.53
		s0.67-0.54,1.12-0.54s0.83,0.18,1.12,0.54s0.43,0.87,0.43,1.53c0,0.66-0.14,1.17-0.43,1.53
		C534.73,142.03,534.35,142.21,533.89,142.21z M533.89,141.54c0.21,0,0.39-0.11,0.52-0.33c0.14-0.22,0.21-0.58,0.21-1.07
		c0-0.49-0.07-0.85-0.21-1.07s-0.31-0.33-0.52-0.33c-0.21,0-0.39,0.11-0.53,0.33s-0.21,0.57-0.21,1.07c0,0.49,0.07,0.85,0.21,1.07
		C533.51,141.43,533.68,141.54,533.89,141.54z M534.09,144.85l3.57-6.78h0.7l-3.56,6.78H534.09z M538.58,144.85
		c-0.46,0-0.83-0.18-1.12-0.54s-0.43-0.88-0.43-1.54s0.14-1.17,0.43-1.53c0.29-0.36,0.67-0.53,1.12-0.53s0.83,0.18,1.12,0.53
		c0.29,0.36,0.44,0.87,0.44,1.53s-0.15,1.17-0.44,1.54S539.04,144.85,538.58,144.85z M538.58,144.18c0.21,0,0.39-0.11,0.53-0.33
		s0.21-0.58,0.21-1.08s-0.07-0.85-0.21-1.07c-0.14-0.22-0.31-0.32-0.53-0.32c-0.21,0-0.39,0.11-0.52,0.32
		c-0.14,0.22-0.21,0.57-0.21,1.07s0.07,0.85,0.21,1.08C538.19,144.07,538.37,144.18,538.58,144.18z"/>
</g>
<g>
	<path d="M628.79,165.03v-1.64h-2.81v-0.78l2.52-3.94h1.37v3.83h0.8v0.89h-0.8v1.64H628.79z M627.12,162.5h1.67v-1.44
		c0-0.19,0-0.41,0.01-0.66s0.02-0.47,0.04-0.66h-0.04c-0.08,0.17-0.16,0.33-0.25,0.49s-0.18,0.33-0.27,0.5L627.12,162.5z"/>
	<path d="M631.31,165.03v-0.67c0.44-0.43,0.84-0.82,1.2-1.18c0.36-0.36,0.66-0.69,0.91-1s0.44-0.59,0.57-0.86
		c0.13-0.27,0.2-0.52,0.2-0.76c0-0.34-0.09-0.61-0.27-0.81c-0.18-0.2-0.44-0.29-0.78-0.29c-0.25,0-0.47,0.07-0.67,0.21
		c-0.2,0.14-0.39,0.31-0.57,0.5l-0.64-0.64c0.29-0.31,0.59-0.55,0.91-0.72c0.31-0.17,0.68-0.26,1.12-0.26
		c0.31,0,0.58,0.05,0.83,0.14c0.25,0.09,0.46,0.22,0.63,0.39c0.17,0.17,0.31,0.38,0.4,0.62s0.15,0.51,0.15,0.8
		c0,0.28-0.06,0.57-0.19,0.86c-0.12,0.29-0.29,0.58-0.5,0.88s-0.45,0.6-0.73,0.92s-0.58,0.64-0.89,0.97
		c0.17-0.01,0.35-0.03,0.54-0.04s0.37-0.03,0.52-0.03h1.56v0.98H631.31z"/>
	<path d="M637.92,162.51c-0.46,0-0.83-0.18-1.12-0.55c-0.29-0.36-0.44-0.88-0.44-1.53c0-0.66,0.15-1.17,0.44-1.53
		s0.67-0.54,1.12-0.54s0.83,0.18,1.12,0.54s0.43,0.87,0.43,1.53c0,0.66-0.14,1.17-0.43,1.53
		C638.76,162.33,638.38,162.51,637.92,162.51z M637.92,161.84c0.21,0,0.39-0.11,0.52-0.33c0.14-0.22,0.21-0.58,0.21-1.07
		c0-0.49-0.07-0.85-0.21-1.07s-0.31-0.33-0.52-0.33c-0.21,0-0.39,0.11-0.53,0.33s-0.21,0.57-0.21,1.07c0,0.49,0.07,0.85,0.21,1.07
		C637.54,161.73,637.71,161.84,637.92,161.84z M638.12,165.15l3.57-6.78h0.7l-3.56,6.78H638.12z M642.61,165.15
		c-0.46,0-0.83-0.18-1.12-0.54s-0.43-0.88-0.43-1.54s0.14-1.17,0.43-1.53c0.29-0.36,0.67-0.53,1.12-0.53s0.83,0.18,1.12,0.53
		c0.29,0.36,0.44,0.87,0.44,1.53s-0.15,1.17-0.44,1.54S643.07,165.15,642.61,165.15z M642.61,164.48c0.21,0,0.39-0.11,0.53-0.33
		s0.21-0.58,0.21-1.08s-0.07-0.85-0.21-1.07c-0.14-0.22-0.31-0.32-0.53-0.32c-0.21,0-0.39,0.11-0.52,0.32
		c-0.14,0.22-0.21,0.57-0.21,1.07s0.07,0.85,0.21,1.08C642.22,164.37,642.4,164.48,642.61,164.48z"/>
</g>
<line class="st2" x1="77.53" y1="309.77" x2="672.59" y2="309.77"/>
</svg>
