<?xml version="1.0" encoding="UTF-8"?>
<svg width="108px" height="108px" viewBox="0 0 108 108" version="1.1" xmlns="http://www.w3.org/2000/svg" xmlns:xlink="http://www.w3.org/1999/xlink">
    <title>1BBC6B52-8760-4501-9147-E97BB16073BD@1.00x</title>
    <g id="Final" stroke="none" stroke-width="1" fill="none" fill-rule="evenodd">
        <g id="Case-Study-&gt;-Goodr" transform="translate(-1143.000000, -1334.000000)" fill="#294071">
            <g id="section-key-findings" transform="translate(143.000000, 1093.000000)">
                <g id="Group" transform="translate(1000.000000, 241.000000)">
                    <g id="sign-closed">
                        <path d="M103.304348,38 C105.898696,38 108,40.0883333 108,42.6666667 L108,42.6666667 L108,103.333333 C108,105.911667 105.898696,108 103.304348,108 L103.304348,108 L4.69565217,108 C2.10130435,108 0,105.911667 0,103.333333 L0,103.333333 L0,42.6666667 C0,40.0883333 2.10130435,38 4.69565217,38 L4.69565217,38 Z M18.0430435,64.453 C16.4465217,64.453 15.051913,64.8006667 13.863913,65.4936667 C12.6735652,66.1913333 11.7626087,67.1876667 11.1286957,68.492 C10.4947826,69.7916667 10.1778261,71.3106667 10.1778261,73.042 C10.1778261,75.793 10.8234783,77.9023333 12.1147826,79.37 C13.406087,80.8423333 15.2702609,81.575 17.7096522,81.575 C19.4071304,81.575 20.9426087,81.2903333 22.3184348,80.721 L22.3184348,80.721 L22.3184348,77.7576667 C20.6444348,78.3433333 19.2193043,78.635 18.0430435,78.635 C15.2373913,78.635 13.8357391,76.7776667 13.8357391,73.0653333 C13.8357391,71.2803333 14.2043478,69.8896667 14.9368696,68.8886667 C15.6693913,67.89 16.7047826,67.3906667 18.0430435,67.3906667 C18.6534783,67.3906667 19.278,67.5003333 19.911913,67.722 C20.5458261,67.9436667 21.1773913,68.2003333 21.8042609,68.4966667 L21.8042609,68.4966667 L22.95,65.6266667 C21.3065217,64.845 19.670087,64.453 18.0430435,64.453 Z M62.6775652,64.4553333 C60.9049565,64.4553333 59.5150435,64.8776667 58.5101739,65.72 C57.5053043,66.5623333 57.0028696,67.7196667 57.0028696,69.1943333 C57.0028696,69.976 57.1554783,70.6596667 57.4606957,71.2453333 C57.765913,71.831 58.1744348,72.342 58.6862609,72.783 C59.198087,73.224 59.9658261,73.6836667 60.9894783,74.162 C62.0812174,74.6776667 62.8066957,75.0556667 63.1612174,75.289 C63.5157391,75.5223333 63.7857391,75.7696667 63.9688696,76.0216667 C64.152,76.276 64.2435652,76.5676667 64.2435652,76.8943333 C64.2435652,77.48 64.0346087,77.9186667 63.6190435,78.215 C63.2034783,78.5113333 62.6047826,78.6583333 61.8253043,78.6583333 C61.1749565,78.6583333 60.4565217,78.5556667 59.6746957,78.3503333 C58.8928696,78.145 57.9349565,77.7926667 56.8033043,77.291 L56.8033043,77.291 L56.8033043,80.5716667 C58.1767826,81.239 59.7592174,81.575 61.5482609,81.575 C63.489913,81.575 65.0042609,81.141 66.0936522,80.2753333 C67.1830435,79.4096667 67.7277391,78.2243333 67.7324348,76.7263333 C67.7324348,75.639 67.4436522,74.722 66.8613913,73.973 C66.2814783,73.2263333 65.2061739,72.4796667 63.6401739,71.7353333 C62.4568696,71.173 61.7055652,70.7833333 61.3886087,70.5686667 C61.0716522,70.3493333 60.8415652,70.1276667 60.696,69.8943333 C60.5504348,69.6633333 60.4776522,69.3926667 60.4776522,69.08 C60.4776522,68.5806667 60.656087,68.1746667 61.0153043,67.862 C61.3745217,67.5493333 61.8886957,67.3953333 62.5625217,67.3953333 C63.1283478,67.3953333 63.7035652,67.47 64.2881739,67.6123333 C64.8727826,67.7546667 65.6123478,68.0113333 66.5068696,68.3753333 L66.5068696,68.3753333 L67.6526087,65.629 C66.7886087,65.258 65.9621739,64.9686667 65.1709565,64.7633333 C64.3797391,64.558 63.5486087,64.4553333 62.6775652,64.4553333 Z M46.4024348,64.4273333 C43.8268696,64.4273333 41.8476522,65.1576667 40.4694783,66.6206667 C39.0913043,68.0813333 38.4010435,70.2 38.4010435,72.972 C38.4010435,75.744 39.0889565,77.8696667 40.4647826,79.3513333 C41.8406087,80.833 43.8127826,81.5726667 46.3813043,81.5726667 C48.9498261,81.5726667 50.922,80.833 52.2978261,79.3513333 C53.6736522,77.8696667 54.3615652,75.751 54.3592234,72.9953333 C54.3592234,70.2303333 53.676,68.1116667 52.311913,66.637 C50.9478261,65.1623333 48.978,64.4273333 46.4024348,64.4273333 Z M29.4393913,64.6886667 L25.8847826,64.6886667 L25.8847826,81.3463333 L36.2386957,81.3463333 L36.2386957,78.4296667 L29.4393913,78.4296667 L29.4393913,64.6886667 Z M89.1774783,64.6886667 L83.916,64.6886667 L83.916,81.3463333 L88.6609565,81.3463333 C91.6262609,81.3463333 93.8942609,80.616 95.4649565,79.1576667 C97.0356522,77.6993333 97.8221739,75.5993333 97.8221739,72.8576667 C97.8221739,70.284 97.0661739,68.2773333 95.5518261,66.8423333 C94.0374783,65.4073333 91.9150435,64.6886667 89.1774783,64.6886667 L89.1774783,64.6886667 Z M80.4177391,64.6863333 L70.7658261,64.6863333 L70.7658261,81.344 L80.4177391,81.344 L80.4177391,78.4273333 L74.318087,78.4273333 L74.318087,74.1316667 L79.9927826,74.1316667 L79.9927826,71.2383333 L74.318087,71.2383333 L74.318087,67.582 L80.4177391,67.582 L80.4177391,64.6863333 Z M88.9887205,67 C92.3295735,67 94,68.8151893 94,72.4408348 C94,76.1469449 92.1988016,78 88.6013394,78 L88.6013394,78 L87,78 L87,67 Z M46.5235992,67 C49.5070384,67 51,68.8352355 51,72.5057066 C51,76.1670471 49.499586,78 46.4987579,78 C45.0033122,78 43.8804858,77.5411911 43.1277946,76.6190081 C42.3751035,75.6968251 42,74.3272463 42,72.5057066 C42,70.6841668 42.3800718,69.3100228 43.1402153,68.3878398 C43.9003588,67.4610915 45.0281535,67 46.5235992,67 Z M54.5,0 C59.328334,0 63.2531065,3.7125 63.7410764,8.45742857 L63.7410764,8.45742857 L84,33 L77.9202216,33 L62.4686189,14.2819286 C60.8342699,17.0115 57.8924416,18.8571429 54.5,18.8571429 C51.1075584,18.8571429 48.1657301,17.0115 46.5313811,14.2819286 L46.5313811,14.2819286 L31.0797784,33 L25,33 L45.2589236,8.45742857 C45.7468935,3.7125 49.671666,0 54.5,0 Z" id="closed"></path>
                    </g>
                </g>
            </g>
        </g>
    </g>
</svg>