<?xml version="1.0" encoding="UTF-8"?>
<svg width="85px" height="64px" viewBox="0 0 85 64" version="1.1" xmlns="http://www.w3.org/2000/svg" xmlns:xlink="http://www.w3.org/1999/xlink">
    <title>A250C715-B2AF-4675-9CC0-A3A471B3E467@1.00x</title>
    <g id="Final" stroke="none" stroke-width="1" fill="none" fill-rule="evenodd">
        <g id="Case-Study-&gt;-Spice-House" transform="translate(-1167.000000, -1731.000000)" fill="#294071">
            <g id="section-key-findings" transform="translate(143.000000, 1144.000000)">
                <path d="M1054.10417,636.777778 L1054.10417,642.111111 L1078.89583,642.111111 L1078.89583,636.777778 L1109,636.777778 C1109,644.632494 1102.65737,651 1094.83333,651 L1094.83333,651 L1038.16667,651 C1030.34263,651 1024,644.632494 1024,636.777778 L1024,636.777778 L1054.10417,636.777778 Z M1094.83333,587 C1098.74535,587 1101.91667,590.183753 1101.91667,594.111111 L1101.91667,594.111111 L1101.91667,633.222222 L1098.375,633.222222 L1098.375,594.111111 L1034.625,594.111111 L1034.625,633.222222 L1031.08333,633.222222 L1031.08333,594.111111 C1031.08333,590.183753 1034.25465,587 1038.16667,587 L1038.16667,587 Z M1081.30769,623 C1081.69054,623 1082,623.310154 1082,623.692308 C1082,628.273308 1078.27331,632 1073.69231,632 C1073.30946,632 1073,631.689846 1073,631.307692 C1073,630.925538 1073.30946,630.615385 1073.69231,630.615385 C1077.50969,630.615385 1080.61538,627.509692 1080.61538,623.692308 C1080.61538,623.310154 1080.92485,623 1081.30769,623 Z M1049.69231,623 C1050.07515,623 1050.38462,623.310154 1050.38462,623.692308 C1050.38462,627.509692 1053.49031,630.615385 1057.30769,630.615385 C1057.69054,630.615385 1058,630.925538 1058,631.307692 C1058,631.689846 1057.69054,632 1057.30769,632 C1052.72669,632 1049,628.273308 1049,623.692308 C1049,623.310154 1049.30946,623 1049.69231,623 Z M1066,600 C1074.27071,600 1081,606.728571 1081,615 C1081,623.271429 1074.27071,630 1066,630 C1057.72929,630 1051,623.271429 1051,615 C1051,606.728571 1057.72929,600 1066,600 Z M1068.14286,622.552857 C1067.46071,622.746429 1066.74357,622.857143 1066,622.857143 C1065.25643,622.857143 1064.53929,622.746429 1063.85714,622.552143 L1063.85714,622.552143 L1063.85714,628.385 C1064.55714,628.497143 1065.26929,628.571429 1066,628.571429 C1066.73071,628.571429 1067.44286,628.497143 1068.14286,628.385714 L1068.14286,628.385714 Z M1066,608.571429 C1062.455,608.571429 1059.57143,611.455714 1059.57143,615 C1059.57143,618.544286 1062.455,621.428571 1066,621.428571 C1069.545,621.428571 1072.42857,618.544286 1072.42857,615 C1072.42857,611.455714 1069.545,608.571429 1066,608.571429 Z M1079.38571,612.857143 L1073.55286,612.857143 C1073.74643,613.539286 1073.85714,614.256429 1073.85714,615 C1073.85714,615.743571 1073.74643,616.460714 1073.55214,617.142857 L1073.55214,617.142857 L1079.385,617.142857 C1079.49714,616.442857 1079.57143,615.730714 1079.57143,615 C1079.57143,614.269286 1079.49714,613.557143 1079.38571,612.857143 L1079.38571,612.857143 Z M1058.44786,612.857143 L1052.615,612.857143 C1052.50286,613.557143 1052.42857,614.269286 1052.42857,615 C1052.42857,615.730714 1052.50286,616.442857 1052.615,617.142857 L1052.615,617.142857 L1058.44714,617.142857 C1058.25357,616.460714 1058.14286,615.743571 1058.14286,615 C1058.14286,614.256429 1058.25357,613.539286 1058.44786,612.857143 L1058.44786,612.857143 Z M1057.30769,599 C1057.69054,599 1058,599.310154 1058,599.692308 C1058,600.074462 1057.69054,600.384615 1057.30769,600.384615 C1053.49031,600.384615 1050.38462,603.490308 1050.38462,607.307692 C1050.38462,607.689846 1050.07515,608 1049.69231,608 C1049.30946,608 1049,607.689846 1049,607.307692 C1049,602.726692 1052.72669,599 1057.30769,599 Z M1073.69231,599 C1078.27331,599 1082,602.726692 1082,607.307692 C1082,607.689846 1081.69054,608 1081.30769,608 C1080.92485,608 1080.61538,607.689846 1080.61538,607.307692 C1080.61538,603.490308 1077.50969,600.384615 1073.69231,600.384615 C1073.30946,600.384615 1073,600.074462 1073,599.692308 C1073,599.310154 1073.30946,599 1073.69231,599 Z M1066,601.428571 C1065.26929,601.428571 1064.55714,601.502857 1063.85714,601.615 L1063.85714,601.615 L1063.85714,607.447143 C1064.53929,607.253571 1065.25643,607.142857 1066,607.142857 C1066.74357,607.142857 1067.46071,607.253571 1068.14286,607.447857 L1068.14286,607.447857 L1068.14286,601.615 C1067.44286,601.502857 1066.73071,601.428571 1066,601.428571 Z" id="usefull"></path>
            </g>
        </g>
    </g>
</svg>