<?xml version="1.0" encoding="UTF-8"?>
<svg width="85px" height="64px" viewBox="0 0 85 64" version="1.1" xmlns="http://www.w3.org/2000/svg" xmlns:xlink="http://www.w3.org/1999/xlink">
    <title>33F8D807-4040-4D02-95E6-5FFA5D544443@1.00x</title>
    <g id="Final" stroke="none" stroke-width="1" fill="none" fill-rule="evenodd">
        <g id="Case-Study-&gt;-Sunrise-Coffee" transform="translate(-1167.000000, -1707.000000)" fill="#294071">
            <path d="M1197.10417,1756.77778 L1197.10417,1762.11111 L1221.89583,1762.11111 L1221.89583,1756.77778 L1252,1756.77778 C1252,1764.52776 1245.82538,1770.82994 1238.14549,1770.99662 L1237.83333,1771 L1181.16667,1771 C1173.44695,1771 1167.1694,1764.80116 1167.00337,1757.09116 L1167,1756.77778 L1197.10417,1756.77778 Z M1237.83333,1707 C1241.66551,1707 1244.78692,1710.05513 1244.91272,1713.87161 L1244.91667,1714.11111 L1244.91667,1753.22222 L1241.375,1753.22222 L1241.375,1714.11111 L1177.625,1714.11111 L1177.625,1753.22222 L1174.08333,1753.22222 L1174.08333,1714.11111 C1174.08333,1710.2639 1177.12653,1707.13026 1180.9281,1707.00396 L1181.16667,1707 L1237.83333,1707 Z M1209.44869,1720.74058 C1209.71764,1720.41981 1210.28236,1720.41981 1210.55131,1720.74058 L1210.55131,1720.74058 L1221.84569,1734.24691 C1222.01511,1734.45018 1222.04758,1734.72774 1221.9304,1734.96207 C1221.81252,1735.19506 1221.56616,1735.3443 1221.29439,1735.3443 L1221.29439,1735.3443 L1214.94129,1735.3443 L1214.94129,1746.82468 C1214.94129,1747.19813 1214.62576,1747.5 1214.2354,1747.5 L1214.2354,1747.5 L1205.7646,1747.5 C1205.37424,1747.5 1205.05871,1747.19813 1205.05871,1746.82468 L1205.05871,1746.82468 L1205.05871,1735.3443 L1198.70561,1735.3443 C1198.43384,1735.3443 1198.18748,1735.19506 1198.0696,1734.96207 C1197.95242,1734.72774 1197.98489,1734.45018 1198.15431,1734.24691 L1198.15431,1734.24691 Z" id="usefull"></path>
        </g>
    </g>
</svg>