<?xml version="1.0" encoding="UTF-8"?>
<svg width="88px" height="80px" viewBox="0 0 88 80" version="1.1" xmlns="http://www.w3.org/2000/svg" xmlns:xlink="http://www.w3.org/1999/xlink">
    <title>FC51084F-8CB2-4C51-B63D-D88C5D879155@1.00x</title>
    <g id="Final" stroke="none" stroke-width="1" fill="none" fill-rule="evenodd">
        <g id="Case-Study-&gt;-Peeko-Oyesters" transform="translate(-1020.000000, -1650.000000)" fill="#294071">
            <g id="section-key-findings" transform="translate(143.000000, 1144.000000)">
                <g id="Group-2" transform="translate(877.000000, 499.000000)">
                    <path d="M19.1304348,67.952381 C26.4707826,67.952381 31.6570435,70.832381 34.714087,73.247619 C36.9676522,75.0285714 38.2608696,77.7314286 38.2608696,80.6609524 L38.2608696,80.6609524 L38.2608696,85.0952381 C38.2608696,86.1485714 37.4038261,87 36.3478261,87 L36.3478261,87 L1.91304348,87 C0.857043478,87 0,86.1485714 0,85.0952381 L0,85.0952381 L0,80.6609524 C0,77.7314286 1.29321739,75.0285714 3.54678261,73.247619 C6.60382609,70.832381 11.790087,67.952381 19.1304348,67.952381 Z M68.8695652,67.952381 C76.209913,67.952381 81.3961739,70.832381 84.4532174,73.247619 C86.7067826,75.0285714 88,77.7314286 88,80.6609524 L88,80.6609524 L88,85.0952381 C88,86.1485714 87.1429565,87 86.0869565,87 L86.0869565,87 L51.6521739,87 C50.5961739,87 49.7391304,86.1485714 49.7391304,85.0952381 L49.7391304,85.0952381 L49.7391304,80.6609524 C49.7391304,77.7314286 51.0323478,75.0285714 53.285913,73.247619 C56.3429565,70.832381 61.5292174,67.952381 68.8695652,67.952381 Z M19.1304348,39.3809524 C25.4697032,39.3809524 30.6086957,44.4976981 30.6086957,50.8095238 C30.6086957,57.1213495 25.4697032,62.2380952 19.1304348,62.2380952 C12.7911664,62.2380952 7.65217391,57.1213495 7.65217391,50.8095238 C7.65217391,44.4976981 12.7911664,39.3809524 19.1304348,39.3809524 Z M68.8695652,39.3809524 C75.2088336,39.3809524 80.3478261,44.4976981 80.3478261,50.8095238 C80.3478261,57.1213495 75.2088336,62.2380952 68.8695652,62.2380952 C62.5302968,62.2380952 57.3913043,57.1213495 57.3913043,50.8095238 C57.3913043,44.4976981 62.5302968,39.3809524 68.8695652,39.3809524 Z M44,7 C45.056,7 45.9130435,7.85142857 45.9130435,8.9047619 L45.9130435,8.9047619 L45.9130435,18.4285714 L55.4782609,18.4285714 C56.5342609,18.4285714 57.3913043,19.28 57.3913043,20.3333333 C57.3913043,21.3866667 56.5342609,22.2380952 55.4782609,22.2380952 L55.4782609,22.2380952 L45.9130435,22.2380952 L45.9130435,31.7619048 C45.9130435,32.8152381 45.056,33.6666667 44,33.6666667 C42.944,33.6666667 42.0869565,32.8152381 42.0869565,31.7619048 L42.0869565,31.7619048 L42.0869565,22.2380952 L32.5217391,22.2380952 C31.4657391,22.2380952 30.6086957,21.3866667 30.6086957,20.3333333 C30.6086957,19.28 31.4657391,18.4285714 32.5217391,18.4285714 L32.5217391,18.4285714 L42.0869565,18.4285714 L42.0869565,8.9047619 C42.0869565,7.85142857 42.944,7 44,7 Z" id="people"></path>
                </g>
            </g>
        </g>
    </g>
</svg>